../Core/Src/main.c:107:6:HAL_GPIO_EXTI_Callback	16	static
../Core/Src/main.c:130:6:send	40	static
../Core/Src/main.c:145:6:displayGUI	8	static
../Core/Src/main.c:156:6:EEProm_write	24	static
../Core/Src/main.c:167:6:EEProm_read	24	static
../Core/Src/main.c:176:10:HallEffectRead	8	static
../Core/Src/main.c:183:10:LightSensorRead	48	static
../Core/Src/main.c:213:9:getTime	8	static
../Core/Src/main.c:221:10:dataManager	24	static
../Core/Src/main.c:235:5:main	8	static
../Core/Src/main.c:282:6:SystemClock_Config	104	static
../Core/Src/main.c:332:13:MX_ADC_Init	24	static
../Core/Src/main.c:386:13:MX_I2C1_Init	8	static
../Core/Src/main.c:434:13:MX_RTC_Init	72	static
../Core/Src/main.c:516:13:MX_USART1_UART_Init	8	static
../Core/Src/main.c:551:13:MX_GPIO_Init	48	static
../Core/Src/main.c:579:6:Error_Handler	8	static,ignoring_inline_asm
