(kicad_sch (version 20230121) (generator eeschema)

  (uuid 98467179-03ec-4510-9b60-15fd90cc3cf6)

  (paper "A4")

  (title_block
    (title "Analog and Digital Sensors")
    (date "2023-03-14")
    (rev "v0")
    (company "UCT")
    (comment 1 "Jana van Rooyen")
    (comment 2 "Thomas Greenwood")
    (comment 3 "Harry Papanicolaou")
    (comment 4 "Team 1")
  )

  (lib_symbols
    (symbol "Connector:Conn_01x01_Pin" (pin_names (offset 1.016) hide) (in_bom yes) (on_board yes)
      (property "Reference" "J" (at 0 2.54 0)
        (effects (font (size 1.27 1.27)))
      )
      (property "Value" "Conn_01x01_Pin" (at 0 -2.54 0)
        (effects (font (size 1.27 1.27)))
      )
      (property "Footprint" "" (at 0 0 0)
        (effects (font (size 1.27 1.27)) hide)
      )
      (property "Datasheet" "~" (at 0 0 0)
        (effects (font (size 1.27 1.27)) hide)
      )
      (property "ki_locked" "" (at 0 0 0)
        (effects (font (size 1.27 1.27)))
      )
      (property "ki_keywords" "connector" (at 0 0 0)
        (effects (font (size 1.27 1.27)) hide)
      )
      (property "ki_description" "Generic connector, single row, 01x01, script generated" (at 0 0 0)
        (effects (font (size 1.27 1.27)) hide)
      )
      (property "ki_fp_filters" "Connector*:*_1x??_*" (at 0 0 0)
        (effects (font (size 1.27 1.27)) hide)
      )
      (symbol "Conn_01x01_Pin_1_1"
        (polyline
          (pts
            (xy 1.27 0)
            (xy 0.8636 0)
          )
          (stroke (width 0.1524) (type default))
          (fill (type none))
        )
        (rectangle (start 0.8636 0.127) (end 0 -0.127)
          (stroke (width 0.1524) (type default))
          (fill (type outline))
        )
        (pin passive line (at 5.08 0 180) (length 3.81)
          (name "Pin_1" (effects (font (size 1.27 1.27))))
          (number "1" (effects (font (size 1.27 1.27))))
        )
      )
    )
    (symbol "Connector:Conn_01x02_Pin" (pin_names (offset 1.016) hide) (in_bom yes) (on_board yes)
      (property "Reference" "J" (at 0 2.54 0)
        (effects (font (size 1.27 1.27)))
      )
      (property "Value" "Conn_01x02_Pin" (at 0 -5.08 0)
        (effects (font (size 1.27 1.27)))
      )
      (property "Footprint" "" (at 0 0 0)
        (effects (font (size 1.27 1.27)) hide)
      )
      (property "Datasheet" "~" (at 0 0 0)
        (effects (font (size 1.27 1.27)) hide)
      )
      (property "ki_locked" "" (at 0 0 0)
        (effects (font (size 1.27 1.27)))
      )
      (property "ki_keywords" "connector" (at 0 0 0)
        (effects (font (size 1.27 1.27)) hide)
      )
      (property "ki_description" "Generic connector, single row, 01x02, script generated" (at 0 0 0)
        (effects (font (size 1.27 1.27)) hide)
      )
      (property "ki_fp_filters" "Connector*:*_1x??_*" (at 0 0 0)
        (effects (font (size 1.27 1.27)) hide)
      )
      (symbol "Conn_01x02_Pin_1_1"
        (polyline
          (pts
            (xy 1.27 -2.54)
            (xy 0.8636 -2.54)
          )
          (stroke (width 0.1524) (type default))
          (fill (type none))
        )
        (polyline
          (pts
            (xy 1.27 0)
            (xy 0.8636 0)
          )
          (stroke (width 0.1524) (type default))
          (fill (type none))
        )
        (rectangle (start 0.8636 -2.413) (end 0 -2.667)
          (stroke (width 0.1524) (type default))
          (fill (type outline))
        )
        (rectangle (start 0.8636 0.127) (end 0 -0.127)
          (stroke (width 0.1524) (type default))
          (fill (type outline))
        )
        (pin passive line (at 5.08 0 180) (length 3.81)
          (name "Pin_1" (effects (font (size 1.27 1.27))))
          (number "1" (effects (font (size 1.27 1.27))))
        )
        (pin passive line (at 5.08 -2.54 180) (length 3.81)
          (name "Pin_2" (effects (font (size 1.27 1.27))))
          (number "2" (effects (font (size 1.27 1.27))))
        )
      )
    )
    (symbol "DMP2160UW-7_1" (pin_names (offset 1.016)) (in_bom yes) (on_board yes)
      (property "Reference" "U10" (at 0 8.89 0)
        (effects (font (size 1.27 1.27)))
      )
      (property "Value" "DMP2160UW-7" (at 0 6.35 0)
        (effects (font (size 1.27 1.27)))
      )
      (property "Footprint" "SOT103P240X110-3N" (at 0 0 0)
        (effects (font (size 1.27 1.27)) (justify bottom) hide)
      )
      (property "Datasheet" "" (at 0 0 0)
        (effects (font (size 1.27 1.27)) hide)
      )
      (property "SUPPLIER" "DIODES INC." (at 0 0 0)
        (effects (font (size 1.27 1.27)) (justify bottom) hide)
      )
      (property "PACKAGE" "SOT-23-3" (at 0 0 0)
        (effects (font (size 1.27 1.27)) (justify bottom) hide)
      )
      (property "OC_NEWARK" "23T5606" (at 0 0 0)
        (effects (font (size 1.27 1.27)) (justify bottom) hide)
      )
      (property "OC_FARNELL" "1858672" (at 0 0 0)
        (effects (font (size 1.27 1.27)) (justify bottom) hide)
      )
      (property "MPN" "DMP2160UW-7" (at 0 0 0)
        (effects (font (size 1.27 1.27)) (justify bottom) hide)
      )
      (symbol "DMP2160UW-7_1_0_0"
        (rectangle (start -12.7 -10.16) (end 12.7 5.08)
          (stroke (width 0.4064) (type default))
          (fill (type background))
        )
        (pin input line (at -17.78 0 0) (length 5.08)
          (name "G" (effects (font (size 1.016 1.016))))
          (number "1" (effects (font (size 1.016 1.016))))
        )
        (pin passive line (at -17.78 -5.08 0) (length 5.08)
          (name "S" (effects (font (size 1.016 1.016))))
          (number "2" (effects (font (size 1.016 1.016))))
        )
        (pin power_out line (at 17.78 0 180) (length 5.08)
          (name "D" (effects (font (size 1.016 1.016))))
          (number "3" (effects (font (size 1.016 1.016))))
        )
      )
    )
    (symbol "DMP2160UW-7_2" (pin_names (offset 1.016)) (in_bom yes) (on_board yes)
      (property "Reference" "U11" (at 0 8.89 0)
        (effects (font (size 1.27 1.27)))
      )
      (property "Value" "DMP2160UW-7" (at 0 6.35 0)
        (effects (font (size 1.27 1.27)))
      )
      (property "Footprint" "SOT103P240X110-3N" (at 0 0 0)
        (effects (font (size 1.27 1.27)) (justify bottom) hide)
      )
      (property "Datasheet" "" (at 0 0 0)
        (effects (font (size 1.27 1.27)) hide)
      )
      (property "SUPPLIER" "DIODES INC." (at 0 0 0)
        (effects (font (size 1.27 1.27)) (justify bottom) hide)
      )
      (property "PACKAGE" "SOT-23-3" (at 0 0 0)
        (effects (font (size 1.27 1.27)) (justify bottom) hide)
      )
      (property "OC_NEWARK" "23T5606" (at 0 0 0)
        (effects (font (size 1.27 1.27)) (justify bottom) hide)
      )
      (property "OC_FARNELL" "1858672" (at 0 0 0)
        (effects (font (size 1.27 1.27)) (justify bottom) hide)
      )
      (property "MPN" "DMP2160UW-7" (at 0 0 0)
        (effects (font (size 1.27 1.27)) (justify bottom) hide)
      )
      (symbol "DMP2160UW-7_2_0_0"
        (rectangle (start -12.7 -10.16) (end 12.7 5.08)
          (stroke (width 0.4064) (type default))
          (fill (type background))
        )
        (pin input line (at -17.78 0 0) (length 5.08)
          (name "G" (effects (font (size 1.016 1.016))))
          (number "1" (effects (font (size 1.016 1.016))))
        )
        (pin passive line (at -17.78 -5.08 0) (length 5.08)
          (name "S" (effects (font (size 1.016 1.016))))
          (number "2" (effects (font (size 1.016 1.016))))
        )
        (pin power_out line (at 17.78 0 180) (length 5.08)
          (name "D" (effects (font (size 1.016 1.016))))
          (number "3" (effects (font (size 1.016 1.016))))
        )
      )
    )
    (symbol "Device:C" (pin_numbers hide) (pin_names (offset 0.254)) (in_bom yes) (on_board yes)
      (property "Reference" "C" (at 0.635 2.54 0)
        (effects (font (size 1.27 1.27)) (justify left))
      )
      (property "Value" "C" (at 0.635 -2.54 0)
        (effects (font (size 1.27 1.27)) (justify left))
      )
      (property "Footprint" "" (at 0.9652 -3.81 0)
        (effects (font (size 1.27 1.27)) hide)
      )
      (property "Datasheet" "~" (at 0 0 0)
        (effects (font (size 1.27 1.27)) hide)
      )
      (property "ki_keywords" "cap capacitor" (at 0 0 0)
        (effects (font (size 1.27 1.27)) hide)
      )
      (property "ki_description" "Unpolarized capacitor" (at 0 0 0)
        (effects (font (size 1.27 1.27)) hide)
      )
      (property "ki_fp_filters" "C_*" (at 0 0 0)
        (effects (font (size 1.27 1.27)) hide)
      )
      (symbol "C_0_1"
        (polyline
          (pts
            (xy -2.032 -0.762)
            (xy 2.032 -0.762)
          )
          (stroke (width 0.508) (type default))
          (fill (type none))
        )
        (polyline
          (pts
            (xy -2.032 0.762)
            (xy 2.032 0.762)
          )
          (stroke (width 0.508) (type default))
          (fill (type none))
        )
      )
      (symbol "C_1_1"
        (pin passive line (at 0 3.81 270) (length 2.794)
          (name "~" (effects (font (size 1.27 1.27))))
          (number "1" (effects (font (size 1.27 1.27))))
        )
        (pin passive line (at 0 -3.81 90) (length 2.794)
          (name "~" (effects (font (size 1.27 1.27))))
          (number "2" (effects (font (size 1.27 1.27))))
        )
      )
    )
    (symbol "Device:R" (pin_numbers hide) (pin_names (offset 0)) (in_bom yes) (on_board yes)
      (property "Reference" "R" (at 2.032 0 90)
        (effects (font (size 1.27 1.27)))
      )
      (property "Value" "R" (at 0 0 90)
        (effects (font (size 1.27 1.27)))
      )
      (property "Footprint" "" (at -1.778 0 90)
        (effects (font (size 1.27 1.27)) hide)
      )
      (property "Datasheet" "~" (at 0 0 0)
        (effects (font (size 1.27 1.27)) hide)
      )
      (property "ki_keywords" "R res resistor" (at 0 0 0)
        (effects (font (size 1.27 1.27)) hide)
      )
      (property "ki_description" "Resistor" (at 0 0 0)
        (effects (font (size 1.27 1.27)) hide)
      )
      (property "ki_fp_filters" "R_*" (at 0 0 0)
        (effects (font (size 1.27 1.27)) hide)
      )
      (symbol "R_0_1"
        (rectangle (start -1.016 -2.54) (end 1.016 2.54)
          (stroke (width 0.254) (type default))
          (fill (type none))
        )
      )
      (symbol "R_1_1"
        (pin passive line (at 0 3.81 270) (length 1.27)
          (name "~" (effects (font (size 1.27 1.27))))
          (number "1" (effects (font (size 1.27 1.27))))
        )
        (pin passive line (at 0 -3.81 90) (length 1.27)
          (name "~" (effects (font (size 1.27 1.27))))
          (number "2" (effects (font (size 1.27 1.27))))
        )
      )
    )
    (symbol "Sensor_Optical:LTR-303ALS-01" (in_bom yes) (on_board yes)
      (property "Reference" "U" (at -7.62 8.89 0)
        (effects (font (size 1.27 1.27)) (justify left))
      )
      (property "Value" "LTR-303ALS-01" (at 1.27 8.89 0)
        (effects (font (size 1.27 1.27)) (justify left))
      )
      (property "Footprint" "OptoDevice:Lite-On_LTR-303ALS-01" (at 0 11.43 0)
        (effects (font (size 1.27 1.27)) hide)
      )
      (property "Datasheet" "http://optoelectronics.liteon.com/upload/download/DS86-2013-0004/LTR-303ALS-01_DS_V1.pdf" (at -7.62 8.89 0)
        (effects (font (size 1.27 1.27)) hide)
      )
      (property "ki_keywords" "ambient light sensor i2c" (at 0 0 0)
        (effects (font (size 1.27 1.27)) hide)
      )
      (property "ki_description" "ambient light sensor, i2c interface, 0.01 to 64k lux, 2.4-3.6V" (at 0 0 0)
        (effects (font (size 1.27 1.27)) hide)
      )
      (property "ki_fp_filters" "Lite*On*LTR*303ALS*01*" (at 0 0 0)
        (effects (font (size 1.27 1.27)) hide)
      )
      (symbol "LTR-303ALS-01_0_1"
        (rectangle (start -7.62 7.62) (end 7.62 -7.62)
          (stroke (width 0.254) (type default))
          (fill (type background))
        )
      )
      (symbol "LTR-303ALS-01_1_1"
        (pin power_in line (at 0 10.16 270) (length 2.54)
          (name "VDD" (effects (font (size 1.27 1.27))))
          (number "1" (effects (font (size 1.27 1.27))))
        )
        (pin no_connect line (at 2.54 0 180) (length 2.54) hide
          (name "NC" (effects (font (size 1.27 1.27))))
          (number "2" (effects (font (size 1.27 1.27))))
        )
        (pin power_in line (at 0 -10.16 90) (length 2.54)
          (name "GND" (effects (font (size 1.27 1.27))))
          (number "3" (effects (font (size 1.27 1.27))))
        )
        (pin input line (at -10.16 -2.54 0) (length 2.54)
          (name "SCL" (effects (font (size 1.27 1.27))))
          (number "4" (effects (font (size 1.27 1.27))))
        )
        (pin open_collector line (at 10.16 0 180) (length 2.54)
          (name "INT" (effects (font (size 1.27 1.27))))
          (number "5" (effects (font (size 1.27 1.27))))
        )
        (pin bidirectional line (at -10.16 2.54 0) (length 2.54)
          (name "SDA" (effects (font (size 1.27 1.27))))
          (number "6" (effects (font (size 1.27 1.27))))
        )
      )
    )
    (symbol "Team1_Symbols:DMP2160UW-7" (pin_names (offset 1.016)) (in_bom yes) (on_board yes)
      (property "Reference" "U12" (at 0 8.89 0)
        (effects (font (size 1.27 1.27)))
      )
      (property "Value" "DMP2160UW-7" (at 0 6.35 0)
        (effects (font (size 1.27 1.27)))
      )
      (property "Footprint" "SOT103P240X110-3N" (at 0 0 0)
        (effects (font (size 1.27 1.27)) (justify bottom) hide)
      )
      (property "Datasheet" "" (at 0 0 0)
        (effects (font (size 1.27 1.27)) hide)
      )
      (property "SUPPLIER" "DIODES INC." (at 0 0 0)
        (effects (font (size 1.27 1.27)) (justify bottom) hide)
      )
      (property "PACKAGE" "SOT-23-3" (at 0 0 0)
        (effects (font (size 1.27 1.27)) (justify bottom) hide)
      )
      (property "OC_NEWARK" "23T5606" (at 0 0 0)
        (effects (font (size 1.27 1.27)) (justify bottom) hide)
      )
      (property "OC_FARNELL" "1858672" (at 0 0 0)
        (effects (font (size 1.27 1.27)) (justify bottom) hide)
      )
      (property "MPN" "DMP2160UW-7" (at 0 0 0)
        (effects (font (size 1.27 1.27)) (justify bottom) hide)
      )
      (symbol "DMP2160UW-7_0_0"
        (rectangle (start -12.7 -10.16) (end 12.7 5.08)
          (stroke (width 0.4064) (type default))
          (fill (type background))
        )
        (pin input line (at -17.78 0 0) (length 5.08)
          (name "G" (effects (font (size 1.016 1.016))))
          (number "1" (effects (font (size 1.016 1.016))))
        )
        (pin passive line (at -17.78 -5.08 0) (length 5.08)
          (name "S" (effects (font (size 1.016 1.016))))
          (number "2" (effects (font (size 1.016 1.016))))
        )
        (pin power_out line (at 17.78 0 180) (length 5.08)
          (name "D" (effects (font (size 1.016 1.016))))
          (number "3" (effects (font (size 1.016 1.016))))
        )
      )
    )
    (symbol "Team1_Symbols:LTR-308ALS-01" (in_bom yes) (on_board yes)
      (property "Reference" "U" (at 10.16 11.43 0)
        (effects (font (size 1.27 1.27)))
      )
      (property "Value" "" (at 0 0 0)
        (effects (font (size 1.27 1.27)))
      )
      (property "Footprint" "" (at 0 0 0)
        (effects (font (size 1.27 1.27)) hide)
      )
      (property "Datasheet" "" (at 0 0 0)
        (effects (font (size 1.27 1.27)) hide)
      )
      (symbol "LTR-308ALS-01_0_1"
        (rectangle (start -7.62 8.89) (end 7.62 -6.35)
          (stroke (width 0.254) (type default))
          (fill (type background))
        )
        (text "LTR-308ALS-01" (at 16.51 8.89 0)
          (effects (font (size 1.27 1.27) (color 0 72 0 1)))
        )
      )
      (symbol "LTR-308ALS-01_1_1"
        (pin power_in line (at 0 11.43 270) (length 2.54)
          (name "VDD" (effects (font (size 1.27 1.27))))
          (number "1" (effects (font (size 1.27 1.27))))
        )
        (pin power_in line (at 0 -8.89 90) (length 2.54)
          (name "GND" (effects (font (size 1.27 1.27))))
          (number "2" (effects (font (size 1.27 1.27))))
        )
        (pin input line (at -10.16 -1.27 0) (length 2.54)
          (name "SCL" (effects (font (size 1.27 1.27))))
          (number "3" (effects (font (size 1.27 1.27))))
        )
        (pin bidirectional line (at -10.16 3.81 0) (length 2.54)
          (name "SDA" (effects (font (size 1.27 1.27))))
          (number "4" (effects (font (size 1.27 1.27))))
        )
        (pin open_collector line (at 10.16 1.27 180) (length 2.54)
          (name "INT" (effects (font (size 1.27 1.27))))
          (number "5" (effects (font (size 1.27 1.27))))
        )
      )
    )
    (symbol "Team1_Symbols:SS39ET" (in_bom yes) (on_board yes)
      (property "Reference" "U" (at 12.7 7.62 0)
        (effects (font (size 1.27 1.27)))
      )
      (property "Value" "" (at 0 0 0)
        (effects (font (size 1.27 1.27)))
      )
      (property "Footprint" "" (at 0 0 0)
        (effects (font (size 1.27 1.27)) hide)
      )
      (property "Datasheet" "" (at 0 0 0)
        (effects (font (size 1.27 1.27)) hide)
      )
      (symbol "SS39ET_0_1"
        (rectangle (start -10.16 8.89) (end 10.16 -8.89)
          (stroke (width 0) (type default))
          (fill (type background))
        )
      )
      (symbol "SS39ET_1_1"
        (pin input line (at -12.7 5.08 0) (length 2.54)
          (name "VDD" (effects (font (size 1.27 1.27))))
          (number "1" (effects (font (size 1.27 1.27))))
        )
        (pin output line (at -12.7 0 0) (length 2.54)
          (name "Output" (effects (font (size 1.27 1.27))))
          (number "2" (effects (font (size 1.27 1.27))))
        )
        (pin input line (at -12.7 -5.08 0) (length 2.54)
          (name "GND" (effects (font (size 1.27 1.27))))
          (number "3" (effects (font (size 1.27 1.27))))
        )
      )
    )
    (symbol "power:+3.3V" (power) (pin_names (offset 0)) (in_bom yes) (on_board yes)
      (property "Reference" "#PWR" (at 0 -3.81 0)
        (effects (font (size 1.27 1.27)) hide)
      )
      (property "Value" "+3.3V" (at 0 3.556 0)
        (effects (font (size 1.27 1.27)))
      )
      (property "Footprint" "" (at 0 0 0)
        (effects (font (size 1.27 1.27)) hide)
      )
      (property "Datasheet" "" (at 0 0 0)
        (effects (font (size 1.27 1.27)) hide)
      )
      (property "ki_keywords" "global power" (at 0 0 0)
        (effects (font (size 1.27 1.27)) hide)
      )
      (property "ki_description" "Power symbol creates a global label with name \"+3.3V\"" (at 0 0 0)
        (effects (font (size 1.27 1.27)) hide)
      )
      (symbol "+3.3V_0_1"
        (polyline
          (pts
            (xy -0.762 1.27)
            (xy 0 2.54)
          )
          (stroke (width 0) (type default))
          (fill (type none))
        )
        (polyline
          (pts
            (xy 0 0)
            (xy 0 2.54)
          )
          (stroke (width 0) (type default))
          (fill (type none))
        )
        (polyline
          (pts
            (xy 0 2.54)
            (xy 0.762 1.27)
          )
          (stroke (width 0) (type default))
          (fill (type none))
        )
      )
      (symbol "+3.3V_1_1"
        (pin power_in line (at 0 0 90) (length 0) hide
          (name "+3.3V" (effects (font (size 1.27 1.27))))
          (number "1" (effects (font (size 1.27 1.27))))
        )
      )
    )
    (symbol "power:GND" (power) (pin_names (offset 0)) (in_bom yes) (on_board yes)
      (property "Reference" "#PWR" (at 0 -6.35 0)
        (effects (font (size 1.27 1.27)) hide)
      )
      (property "Value" "GND" (at 0 -3.81 0)
        (effects (font (size 1.27 1.27)))
      )
      (property "Footprint" "" (at 0 0 0)
        (effects (font (size 1.27 1.27)) hide)
      )
      (property "Datasheet" "" (at 0 0 0)
        (effects (font (size 1.27 1.27)) hide)
      )
      (property "ki_keywords" "global power" (at 0 0 0)
        (effects (font (size 1.27 1.27)) hide)
      )
      (property "ki_description" "Power symbol creates a global label with name \"GND\" , ground" (at 0 0 0)
        (effects (font (size 1.27 1.27)) hide)
      )
      (symbol "GND_0_1"
        (polyline
          (pts
            (xy 0 0)
            (xy 0 -1.27)
            (xy 1.27 -1.27)
            (xy 0 -2.54)
            (xy -1.27 -1.27)
            (xy 0 -1.27)
          )
          (stroke (width 0) (type default))
          (fill (type none))
        )
      )
      (symbol "GND_1_1"
        (pin power_in line (at 0 0 270) (length 0) hide
          (name "GND" (effects (font (size 1.27 1.27))))
          (number "1" (effects (font (size 1.27 1.27))))
        )
      )
    )
  )

  (junction (at 96.52 121.92) (diameter 0) (color 0 0 0 0)
    (uuid 0b776d28-ca60-4192-9933-46406abfd163)
  )
  (junction (at 72.39 121.92) (diameter 0) (color 0 0 0 0)
    (uuid 1ba6336c-5e64-4204-a2dd-46fffe41cdaf)
  )
  (junction (at 247.015 53.34) (diameter 0) (color 0 0 0 0)
    (uuid 23637388-e27e-431c-ba6c-5b0fa6f8f5f0)
  )
  (junction (at 74.93 74.295) (diameter 0) (color 0 0 0 0)
    (uuid 3ba6c71f-a8fe-4bad-bd15-69ea293d2297)
  )
  (junction (at 246.38 48.26) (diameter 0) (color 0 0 0 0)
    (uuid 3ea6c9ef-3192-444b-9804-f3e7facaa226)
  )
  (junction (at 31.75 96.52) (diameter 0) (color 0 0 0 0)
    (uuid 433fb195-7508-412c-a3b2-2ae297f5d1fe)
  )
  (junction (at 228.6 48.26) (diameter 0) (color 0 0 0 0)
    (uuid 5fe054eb-1f68-47f8-a1d7-85d89a52e703)
  )
  (junction (at 86.36 74.295) (diameter 0) (color 0 0 0 0)
    (uuid 6352493f-61ed-41c5-9a9d-e5097bdd691a)
  )
  (junction (at 117.475 121.92) (diameter 0) (color 0 0 0 0)
    (uuid 70ae0e29-4071-4128-a76b-99be2db68c03)
  )
  (junction (at 57.785 74.295) (diameter 0) (color 0 0 0 0)
    (uuid 7abe2565-a8b9-4599-835f-9e23828e5633)
  )
  (junction (at 202.565 130.81) (diameter 0) (color 0 0 0 0)
    (uuid 7e9e1d9a-2f8f-4471-ae5e-6a2f22e382c1)
  )
  (junction (at 107.95 121.92) (diameter 0) (color 0 0 0 0)
    (uuid 93009531-28be-4794-943c-532934776a35)
  )
  (junction (at 195.58 130.81) (diameter 0) (color 0 0 0 0)
    (uuid eb213f48-0b38-4da7-bd00-231518d546fb)
  )
  (junction (at 102.87 129.54) (diameter 0) (color 0 0 0 0)
    (uuid eb8727e6-2f0a-434a-a1ea-4e1214d64072)
  )

  (wire (pts (xy 195.58 130.81) (xy 202.565 130.81))
    (stroke (width 0) (type default))
    (uuid 039f7aee-1509-440a-b239-c1cc047fcf84)
  )
  (wire (pts (xy 195.58 125.73) (xy 195.58 130.81))
    (stroke (width 0) (type default))
    (uuid 057e5320-6e4d-4f07-a552-d1d93eb2e810)
  )
  (wire (pts (xy 58.166 132.08) (xy 31.75 132.08))
    (stroke (width 0) (type default))
    (uuid 05b8b684-edfa-40de-aa8d-1d406107f6ef)
  )
  (wire (pts (xy 247.015 53.34) (xy 250.19 53.34))
    (stroke (width 0) (type default))
    (uuid 0746ef12-d0b8-4288-9407-9bdc81169176)
  )
  (wire (pts (xy 202.565 130.81) (xy 209.55 130.81))
    (stroke (width 0) (type default))
    (uuid 144f0997-254a-4341-ba06-d079ea733f84)
  )
  (wire (pts (xy 26.67 96.52) (xy 31.75 96.52))
    (stroke (width 0) (type default))
    (uuid 16a285e1-98b6-470e-b78c-74c08ba45b6f)
  )
  (wire (pts (xy 57.785 69.85) (xy 57.785 74.295))
    (stroke (width 0) (type default))
    (uuid 170e9d79-0403-46bc-bab3-b5ca37f160a4)
  )
  (wire (pts (xy 36.83 176.53) (xy 41.91 176.53))
    (stroke (width 0) (type default))
    (uuid 184241ee-0de4-4f82-95f1-a0be7f6c7f14)
  )
  (wire (pts (xy 31.75 60.96) (xy 31.75 73.66))
    (stroke (width 0) (type default))
    (uuid 1bb90b59-3171-4ba8-beea-fe0d3324dd09)
  )
  (wire (pts (xy 246.38 48.26) (xy 250.19 48.26))
    (stroke (width 0) (type default))
    (uuid 1fa90644-015d-4bf7-b997-0fca9fe14db2)
  )
  (wire (pts (xy 86.36 89.535) (xy 86.36 92.075))
    (stroke (width 0) (type default))
    (uuid 24f6d7e3-29f4-4d36-ad93-41545c502d44)
  )
  (wire (pts (xy 189.865 53.34) (xy 193.04 53.34))
    (stroke (width 0) (type default))
    (uuid 2de5880e-93a9-496c-a82c-f37f1738affe)
  )
  (wire (pts (xy 36.83 163.195) (xy 43.18 163.195))
    (stroke (width 0) (type default))
    (uuid 32bc2f47-f02d-4fa5-a754-cf200d246166)
  )
  (wire (pts (xy 72.39 121.92) (xy 96.52 121.92))
    (stroke (width 0) (type default))
    (uuid 331277cf-d0c4-4d6f-a53e-5baa607c77e3)
  )
  (wire (pts (xy 36.83 173.99) (xy 41.91 173.99))
    (stroke (width 0) (type default))
    (uuid 4150ddc5-fbea-403b-a166-8b5e609ada8d)
  )
  (wire (pts (xy 31.75 96.52) (xy 47.625 96.52))
    (stroke (width 0) (type default))
    (uuid 43b4ab66-5d58-444f-89bf-634b1da110a9)
  )
  (wire (pts (xy 247.015 57.15) (xy 247.015 53.34))
    (stroke (width 0) (type default))
    (uuid 47015cd2-d628-4cd3-a16d-2767dc091f00)
  )
  (wire (pts (xy 228.6 48.26) (xy 246.38 48.26))
    (stroke (width 0) (type default))
    (uuid 4ede4c7e-ff50-44c9-a38b-e3828cb8b53c)
  )
  (wire (pts (xy 96.52 121.92) (xy 107.95 121.92))
    (stroke (width 0) (type default))
    (uuid 4f9aaade-9209-4098-be63-2d443ad77b72)
  )
  (wire (pts (xy 117.475 121.92) (xy 117.475 129.54))
    (stroke (width 0) (type default))
    (uuid 53d478a7-d331-4d1f-a3f5-fc8ef928d57c)
  )
  (wire (pts (xy 74.93 74.295) (xy 57.785 74.295))
    (stroke (width 0) (type default))
    (uuid 569eab74-aaf5-428a-98e4-696e99b01b41)
  )
  (wire (pts (xy 31.75 96.52) (xy 31.75 132.08))
    (stroke (width 0) (type default))
    (uuid 5c381961-f841-4b0c-ba87-bfcb96b8342d)
  )
  (wire (pts (xy 83.185 174.625) (xy 88.265 174.625))
    (stroke (width 0) (type default))
    (uuid 5d5b28f5-05c6-4760-ae0a-c558a732a9b3)
  )
  (wire (pts (xy 36.83 165.735) (xy 43.18 165.735))
    (stroke (width 0) (type default))
    (uuid 639c3181-6fbc-4de5-8d77-a3ac8e9bb2b9)
  )
  (wire (pts (xy 126.365 67.945) (xy 128.905 67.945))
    (stroke (width 0) (type default))
    (uuid 68cc680b-0235-4773-a83a-8e8470188a6f)
  )
  (wire (pts (xy 82.55 160.655) (xy 87.63 160.655))
    (stroke (width 0) (type default))
    (uuid 6c0c7111-d28c-4f5a-abfe-9b78a1748605)
  )
  (wire (pts (xy 246.38 43.18) (xy 246.38 48.26))
    (stroke (width 0) (type default))
    (uuid 6d14efcd-bce8-4050-a60a-ec3180f6c0fa)
  )
  (wire (pts (xy 82.55 163.195) (xy 87.63 163.195))
    (stroke (width 0) (type default))
    (uuid 702cdabf-bb11-4b35-9301-072fd0e7d71e)
  )
  (wire (pts (xy 202.565 128.27) (xy 202.565 130.81))
    (stroke (width 0) (type default))
    (uuid 70d6a6d4-5a03-498d-bfda-0c12fcfd2791)
  )
  (wire (pts (xy 153.035 127) (xy 163.83 127))
    (stroke (width 0) (type default))
    (uuid 747c459f-1bf4-4b46-8ab1-9e9ac3580698)
  )
  (wire (pts (xy 244.475 57.15) (xy 247.015 57.15))
    (stroke (width 0) (type default))
    (uuid 79e278ae-e53a-41e0-9605-0de2635bab48)
  )
  (wire (pts (xy 83.185 172.085) (xy 88.265 172.085))
    (stroke (width 0) (type default))
    (uuid 7a5f62d6-6ad5-4b21-b8ac-9f52f9ce3208)
  )
  (wire (pts (xy 117.475 137.16) (xy 117.475 139.7))
    (stroke (width 0) (type default))
    (uuid 7d6861de-9104-4de9-b66d-26003b021b6f)
  )
  (wire (pts (xy 47.625 96.52) (xy 47.625 97.155))
    (stroke (width 0) (type default))
    (uuid 7e5e92f3-3224-4fed-b9f4-89f6da7434c0)
  )
  (wire (pts (xy 195.58 111.76) (xy 195.58 118.11))
    (stroke (width 0) (type default))
    (uuid 82d6c763-1f6f-4b4e-8ee4-b31deb28c08f)
  )
  (wire (pts (xy 126.365 81.28) (xy 126.365 79.375))
    (stroke (width 0) (type default))
    (uuid 831fdbec-19d7-46b9-a46d-b58a99be1be3)
  )
  (wire (pts (xy 184.15 48.26) (xy 193.04 48.26))
    (stroke (width 0) (type default))
    (uuid 83b2b844-0066-4a50-b966-6114c4ddf14e)
  )
  (wire (pts (xy 228.6 48.26) (xy 228.6 60.96))
    (stroke (width 0) (type default))
    (uuid 86518018-7a0c-448c-9fc5-e2923cc1b157)
  )
  (wire (pts (xy 195.58 146.05) (xy 195.58 149.86))
    (stroke (width 0) (type default))
    (uuid 89cbc24a-66d6-40fd-96b9-c5b8069d0db6)
  )
  (wire (pts (xy 35.56 185.42) (xy 40.64 185.42))
    (stroke (width 0) (type default))
    (uuid 8c6dbd28-0000-4362-88b3-b57b627764b2)
  )
  (wire (pts (xy 228.6 68.58) (xy 228.6 71.12))
    (stroke (width 0) (type default))
    (uuid 8fae7359-9355-40be-ba60-b78b1afcb31b)
  )
  (wire (pts (xy 78.486 134.62) (xy 82.55 134.62))
    (stroke (width 0) (type default))
    (uuid 9409b345-ac64-4300-aa04-f3512f947229)
  )
  (wire (pts (xy 74.93 74.295) (xy 74.93 76.835))
    (stroke (width 0) (type default))
    (uuid 97597fd1-7dec-4d81-ae4e-6590649b4ed4)
  )
  (wire (pts (xy 74.93 84.455) (xy 74.93 85.725))
    (stroke (width 0) (type default))
    (uuid 9f35b411-5dca-4481-837a-dd3c55375c80)
  )
  (wire (pts (xy 31.75 81.28) (xy 31.75 96.52))
    (stroke (width 0) (type default))
    (uuid a7c21734-a516-4c8f-8983-2e2b599b0a4e)
  )
  (wire (pts (xy 246.38 58.42) (xy 250.19 58.42))
    (stroke (width 0) (type default))
    (uuid ab83f42f-0020-4bfa-9c41-dc436bfd8e56)
  )
  (wire (pts (xy 86.36 74.295) (xy 90.805 74.295))
    (stroke (width 0) (type default))
    (uuid b72662de-0dac-45c2-b65a-843ab0dac77f)
  )
  (wire (pts (xy 68.326 121.92) (xy 72.39 121.92))
    (stroke (width 0) (type default))
    (uuid b99d39c9-add7-4331-9ea1-cba3c90cfe48)
  )
  (wire (pts (xy 86.36 74.295) (xy 86.36 81.915))
    (stroke (width 0) (type default))
    (uuid baa9663a-425d-4229-b8fc-2d1aed25117f)
  )
  (wire (pts (xy 153.035 121.92) (xy 154.305 121.92))
    (stroke (width 0) (type default))
    (uuid be6d1e3f-6f0a-4e4b-9494-c445c69a6030)
  )
  (wire (pts (xy 57.785 74.295) (xy 57.785 86.995))
    (stroke (width 0) (type default))
    (uuid bf7fd231-2ae4-4405-ab2b-0bc745bfa105)
  )
  (wire (pts (xy 102.87 129.54) (xy 107.95 129.54))
    (stroke (width 0) (type default))
    (uuid c9a762bc-d3c5-404d-baac-de12dd44ad79)
  )
  (wire (pts (xy 96.52 129.54) (xy 102.87 129.54))
    (stroke (width 0) (type default))
    (uuid cb7c9594-c11b-4626-a689-52fe91cce248)
  )
  (wire (pts (xy 72.39 118.745) (xy 72.39 121.92))
    (stroke (width 0) (type default))
    (uuid cbd0eefc-f0c3-4d22-b085-0d5999b0a451)
  )
  (wire (pts (xy 140.97 81.28) (xy 126.365 81.28))
    (stroke (width 0) (type default))
    (uuid cfe21374-08de-4dd5-a40a-33c433f1c1ac)
  )
  (wire (pts (xy 126.365 74.295) (xy 126.365 67.945))
    (stroke (width 0) (type default))
    (uuid d6d64bf8-8db1-4bba-a39c-526b8f0cdb0d)
  )
  (wire (pts (xy 107.95 121.92) (xy 117.475 121.92))
    (stroke (width 0) (type default))
    (uuid dbeec801-ae21-44e9-a814-5806ff3963f6)
  )
  (wire (pts (xy 68.326 142.24) (xy 72.39 142.24))
    (stroke (width 0) (type default))
    (uuid dc47405f-236e-455c-b82b-88730aa9bec6)
  )
  (wire (pts (xy 242.57 53.34) (xy 247.015 53.34))
    (stroke (width 0) (type default))
    (uuid ddaf21c2-75fd-4c3c-bff8-c786c676a63a)
  )
  (wire (pts (xy 74.93 74.295) (xy 86.36 74.295))
    (stroke (width 0) (type default))
    (uuid e6fd10cb-163b-4740-aba6-d99255310fa5)
  )
  (wire (pts (xy 78.486 129.54) (xy 82.55 129.54))
    (stroke (width 0) (type default))
    (uuid f1f5d7b7-809a-487e-94f4-fc2b86c80ff7)
  )
  (wire (pts (xy 140.97 74.93) (xy 140.97 77.47))
    (stroke (width 0) (type default))
    (uuid f456b4b5-a6a5-4b78-b39c-46467bc069ca)
  )
  (wire (pts (xy 195.58 130.81) (xy 195.58 138.43))
    (stroke (width 0) (type default))
    (uuid f81ec796-d329-4d3d-b9cf-9a947c463bfc)
  )
  (wire (pts (xy 163.83 120.015) (xy 163.83 122.555))
    (stroke (width 0) (type default))
    (uuid f93f46ca-89b6-44aa-943d-02a4e7fb931e)
  )
  (wire (pts (xy 154.305 113.665) (xy 154.305 121.92))
    (stroke (width 0) (type default))
    (uuid fbfb6774-7470-425b-8006-5346df331600)
  )

  (rectangle (start 17.78 45.72) (end 167.005 149.225)
    (stroke (width 0) (type default))
    (fill (type none))
    (uuid 2d61b051-76e2-42b2-aa47-f60c5c3e0e1d)
  )
  (rectangle (start 17.78 151.13) (end 118.745 193.675)
    (stroke (width 0) (type default))
    (fill (type none))
    (uuid 526bda0e-1f9b-4710-b291-003d80c7a961)
  )
  (rectangle (start 168.275 13.97) (end 282.575 81.28)
    (stroke (width 0) (type default))
    (fill (type none))
    (uuid 92021085-b0bd-4194-85c8-0f285ddd9171)
  )
  (rectangle (start 189.23 92.71) (end 281.305 160.655)
    (stroke (width 0) (type default))
    (fill (type none))
    (uuid ebfe4e5c-f56a-439d-a7af-ff471b58405f)
  )

  (text "Digital Ambient Light Sensor" (at 44.45 52.07 0)
    (effects (font (size 2.5 2.5)) (justify left bottom))
    (uuid 0f06b64b-48d4-406a-a42a-947f1a2b1be1)
  )
  (text "Backup Digital Ambient Light Sensor\n" (at 77.47 143.51 0)
    (effects (font (size 1.27 1.27)) (justify left bottom))
    (uuid 1004553f-c23f-47c5-b584-31f6e53b1a78)
  )
  (text "Powered off 3V3 from voltage regulator circuit in\nthe power supply module."
    (at 226.06 29.21 0)
    (effects (font (size 1.27 1.27)) (justify left bottom))
    (uuid 11e5fa78-7d39-4644-b0f5-2cac54886be9)
  )
  (text "Powered off 3V3 from voltage regulator circuit in\nthe power supply module."
    (at 48.26 58.42 0)
    (effects (font (size 1.27 1.27)) (justify left bottom))
    (uuid 28b14c75-577a-4a9a-a6b1-269b6d1f53b9)
  )
  (text "Test Points" (at 24.765 154.94 0)
    (effects (font (size 1.27 1.27)) (justify left bottom))
    (uuid 3cf9f1dd-cf39-4fde-9fc6-554c1d2bf26c)
  )
  (text "P Mosfet Switch" (at 136.525 65.405 0)
    (effects (font (size 1.27 1.27)) (justify left bottom))
    (uuid 55b4918b-6a59-45c6-bfac-e0fdd4564293)
  )
  (text "ADC input test points have been added on the microcontroller schematic."
    (at 210.82 24.13 0)
    (effects (font (size 1.27 1.27)) (justify left bottom))
    (uuid 618fb2e8-3959-485b-961e-938bb7b5d7f5)
  )
  (text "P Mosfet Switch" (at 191.77 62.23 0)
    (effects (font (size 1.27 1.27)) (justify left bottom))
    (uuid 842676e1-0ce2-4b8f-8bea-fb7fa1edcc38)
  )
  (text "Battery Voltage Level Analogue Sensor" (at 201.93 102.87 0)
    (effects (font (size 2.5 2.5)) (justify left bottom))
    (uuid 8fc3f793-569c-435e-a8b6-2b8ecab18e64)
  )
  (text "P Mosfet Switch" (at 137.795 137.16 0)
    (effects (font (size 1.27 1.27)) (justify left bottom))
    (uuid b1c3e676-024e-4d34-a887-ad3032a4ea72)
  )
  (text "Connected to the battery output." (at 204.47 110.49 0)
    (effects (font (size 1.27 1.27)) (justify left bottom))
    (uuid b82964ae-cfa1-45a2-9d2b-43df37e5f2ab)
  )
  (text "Notes for Jana\nDouble check all footprint measurements.\n"
    (at 59.69 31.115 0)
    (effects (font (size 1.27 1.27) (color 132 0 0 1)) (justify left bottom))
    (uuid d240a38c-a2ba-438a-9bd4-46d46ddab228)
  )
  (text "ADC input test points have been added on the microcontroller schematic."
    (at 204.47 106.68 0)
    (effects (font (size 1.27 1.27)) (justify left bottom))
    (uuid d47a0931-a760-4f78-ba4d-47d50d1890f0)
  )
  (text "Digital Ambient Light Sensor" (at 65.405 108.585 0)
    (effects (font (size 1.27 1.27)) (justify left bottom))
    (uuid f55c018f-a92a-4a52-bbe7-798086b4da96)
  )
  (text "Hall Effect Analogue Sensor" (at 210.82 20.32 0)
    (effects (font (size 2.5 2.5)) (justify left bottom))
    (uuid fb6984f4-80ef-4d5e-8872-4020e303dd51)
  )

  (label "Hall Sensor VDD" (at 246.38 43.18 0) (fields_autoplaced)
    (effects (font (size 1.27 1.27)) (justify left bottom))
    (uuid 0e2b866c-a96f-4340-8868-da569298b7b5)
  )
  (label "Hall Output VDD" (at 244.475 57.15 180) (fields_autoplaced)
    (effects (font (size 1.27 1.27)) (justify right bottom))
    (uuid 2be96bd9-1c6b-4d48-aded-1d303fa7b28b)
  )
  (label "Light Sensor 2 VDD" (at 72.39 118.745 0) (fields_autoplaced)
    (effects (font (size 1.27 1.27)) (justify left bottom))
    (uuid 3a597822-0ac3-4bcd-a364-b78fb80ccb46)
  )
  (label "Hall Output VDD" (at 41.91 176.53 0) (fields_autoplaced)
    (effects (font (size 1.27 1.27)) (justify left bottom))
    (uuid 416b9902-accf-4a2b-80fa-f177628890c6)
  )
  (label "Light Sensor 1 VDD" (at 43.18 163.195 0) (fields_autoplaced)
    (effects (font (size 1.27 1.27)) (justify left bottom))
    (uuid 5b55f61f-56af-4aae-bc32-df221d13f53f)
  )
  (label "Battery Sensor Output" (at 40.64 185.42 0) (fields_autoplaced)
    (effects (font (size 1.27 1.27)) (justify left bottom))
    (uuid 6770c021-16f0-4913-9363-511c6e4fc43d)
  )
  (label "Second Hall Sensor In" (at 87.63 160.655 0) (fields_autoplaced)
    (effects (font (size 1.27 1.27)) (justify left bottom))
    (uuid 7cf518a6-fa5c-4c64-8fab-0735c546cc01)
  )
  (label "Hall Sensor VDD" (at 41.91 173.99 0) (fields_autoplaced)
    (effects (font (size 1.27 1.27)) (justify left bottom))
    (uuid 7eda1ae0-8089-4df6-b02b-fc85d70b0791)
  )
  (label "Second Hall Sensor Out" (at 87.63 163.195 0) (fields_autoplaced)
    (effects (font (size 1.27 1.27)) (justify left bottom))
    (uuid 9b959b05-6389-44bd-882a-ca6e2e2a68b8)
  )
  (label "Light Sensor 2 VDD" (at 43.18 165.735 0) (fields_autoplaced)
    (effects (font (size 1.27 1.27)) (justify left bottom))
    (uuid 9e896c0b-2d1a-47fc-ac2e-f20a3f6e9823)
  )
  (label "First Hall Sensor Out" (at 88.265 174.625 0) (fields_autoplaced)
    (effects (font (size 1.27 1.27)) (justify left bottom))
    (uuid a3acbcfe-5ee3-4451-94c1-5f40d9dad00f)
  )
  (label "First Hall Sensor In" (at 88.265 172.085 0) (fields_autoplaced)
    (effects (font (size 1.27 1.27)) (justify left bottom))
    (uuid a9192e8b-3347-4308-8df8-20bed2ee3287)
  )
  (label "First Hall Sensor In" (at 140.97 77.47 0) (fields_autoplaced)
    (effects (font (size 1.27 1.27)) (justify left bottom))
    (uuid aae10954-e64a-442a-8c61-08c75d74cac1)
  )
  (label "Second Hall Sensor Out" (at 163.83 127 0) (fields_autoplaced)
    (effects (font (size 1.27 1.27)) (justify left bottom))
    (uuid aaf54d92-7496-465e-a373-62ea76ede4ad)
  )
  (label "Second Hall Sensor In" (at 163.83 122.555 0) (fields_autoplaced)
    (effects (font (size 1.27 1.27)) (justify left bottom))
    (uuid d83c7556-e345-4ed3-bc5c-8cfe2c2ee62c)
  )
  (label "Battery Sensor Output" (at 202.565 128.27 0) (fields_autoplaced)
    (effects (font (size 1.27 1.27)) (justify left bottom))
    (uuid e20c1426-5cd3-46f4-9730-25f766f487b4)
  )
  (label "Light Sensor 1 VDD" (at 57.785 69.85 0) (fields_autoplaced)
    (effects (font (size 1.27 1.27)) (justify left bottom))
    (uuid e921fbed-f0e5-457e-b608-2816bd1c91d9)
  )
  (label "First Hall Sensor Out" (at 140.97 81.28 0) (fields_autoplaced)
    (effects (font (size 1.27 1.27)) (justify left bottom))
    (uuid eed2b20d-7c3a-4db2-bb9c-04cece255c73)
  )

  (hierarchical_label "I2C_SDA" (shape input) (at 67.945 94.615 0) (fields_autoplaced)
    (effects (font (size 1.27 1.27)) (justify left))
    (uuid 06a2ac1e-3b9d-48f9-b2c3-3ef76f1a4dbf)
  )
  (hierarchical_label "GPIO_Out_1" (shape input) (at 128.905 67.945 0) (fields_autoplaced)
    (effects (font (size 1.27 1.27)) (justify left))
    (uuid 11f78b83-0507-4af7-8110-9e0beb936a0f)
  )
  (hierarchical_label "GPIO_Out_3" (shape input) (at 184.15 48.26 180) (fields_autoplaced)
    (effects (font (size 1.27 1.27)) (justify right))
    (uuid 169fc4c8-fa5e-40aa-9c7b-6698ba528a17)
  )
  (hierarchical_label "I2C_SDA" (shape input) (at 82.55 129.54 0) (fields_autoplaced)
    (effects (font (size 1.27 1.27)) (justify left))
    (uuid 2a7ff8ec-0bc1-483b-9534-8b060d253f8c)
  )
  (hierarchical_label "GPIO_Out_2" (shape input) (at 154.305 113.665 0) (fields_autoplaced)
    (effects (font (size 1.27 1.27)) (justify left))
    (uuid 306cfdfa-1922-4a3c-ae1c-2027ef4c0caf)
  )
  (hierarchical_label "I2C_SCL" (shape input) (at 67.945 99.695 0) (fields_autoplaced)
    (effects (font (size 1.27 1.27)) (justify left))
    (uuid 6231c4e1-632f-41bc-afe7-0bba50ce7df8)
  )
  (hierarchical_label "I2C_SCL" (shape input) (at 82.55 134.62 0) (fields_autoplaced)
    (effects (font (size 1.27 1.27)) (justify left))
    (uuid 6a8571ca-f376-4cab-80c6-3bc0380de741)
  )
  (hierarchical_label "ADC_Input_1" (shape input) (at 242.57 53.34 180) (fields_autoplaced)
    (effects (font (size 1.27 1.27)) (justify right))
    (uuid 837585a0-9e2a-4de0-9f9b-7d6b694ed0c7)
  )
  (hierarchical_label "INT" (shape input) (at 26.67 96.52 180) (fields_autoplaced)
    (effects (font (size 1.27 1.27)) (justify right))
    (uuid 8b6be050-717a-4190-b7aa-6be704534c43)
  )
  (hierarchical_label "ADC_Input_2" (shape input) (at 209.55 130.81 0) (fields_autoplaced)
    (effects (font (size 1.27 1.27)) (justify left))
    (uuid b7f90200-5c9b-452c-b99a-a13526df0b64)
  )

  (symbol (lib_id "Device:C") (at 74.93 80.645 0) (unit 1)
    (in_bom yes) (on_board yes) (dnp no) (fields_autoplaced)
    (uuid 050819dc-c805-4deb-9d2e-171e1ee8baf8)
    (property "Reference" "C?" (at 78.74 80.01 0)
      (effects (font (size 1.27 1.27)) (justify left))
    )
    (property "Value" "1uF" (at 78.74 82.55 0)
      (effects (font (size 1.27 1.27)) (justify left))
    )
    (property "Footprint" "Capacitor_SMD:C_1206_3216Metric" (at 75.8952 84.455 0)
      (effects (font (size 1.27 1.27)) hide)
    )
    (property "Datasheet" "~" (at 74.93 80.645 0)
      (effects (font (size 1.27 1.27)) hide)
    )
    (property "Price" "0.02" (at 74.93 80.645 0)
      (effects (font (size 1.27 1.27)) hide)
    )
    (property "JLC Part Name" "C1848" (at 74.93 80.645 0)
      (effects (font (size 1.27 1.27)) hide)
    )
    (pin "1" (uuid cf7488dd-1c2d-406f-bc2b-20ba8bd71112))
    (pin "2" (uuid a58a1d8e-efdc-415e-bbda-75bb38285e36))
    (instances
      (project "Personal_Drafts"
        (path "/209120cb-15d4-4622-b960-6b644f5d28eb/a98e5c82-e6f2-44c4-87c9-59a0d951ee77"
          (reference "C?") (unit 1)
        )
      )
      (project "Team1_project"
        (path "/2e9fab27-2079-4468-88ae-c6d7a5f085c6/00000000-0000-0000-0000-0000640241ba"
          (reference "C21") (unit 1)
        )
      )
    )
  )

  (symbol (lib_id "Sensor_Optical:LTR-303ALS-01") (at 57.785 97.155 0) (mirror y) (unit 1)
    (in_bom yes) (on_board yes) (dnp no) (fields_autoplaced)
    (uuid 06a86510-4dc1-48e0-8f35-aae3bcfd5b8f)
    (property "Reference" "U8" (at 58.3691 85.725 0)
      (effects (font (size 1.27 1.27)) (justify right))
    )
    (property "Value" "LTR-303ALS-01" (at 58.3691 88.265 0)
      (effects (font (size 1.27 1.27)) (justify right))
    )
    (property "Footprint" "OptoDevice:Lite-On_LTR-303ALS-01" (at 57.785 85.725 0)
      (effects (font (size 1.27 1.27)) hide)
    )
    (property "Datasheet" "http://optoelectronics.liteon.com/upload/download/DS86-2013-0004/LTR-303ALS-01_DS_V1.pdf" (at 65.405 88.265 0)
      (effects (font (size 1.27 1.27)) hide)
    )
    (property "JLC Part Name" "C364577" (at 57.785 97.155 0)
      (effects (font (size 1.27 1.27)) hide)
    )
    (property "Price" "0.3762 " (at 57.785 97.155 0)
      (effects (font (size 1.27 1.27)) hide)
    )
    (pin "1" (uuid 08827ce5-bb47-4b05-b3b0-72dc8b4cea99))
    (pin "2" (uuid 2f5dd61f-4912-4657-8fc7-e83d9e72553f))
    (pin "3" (uuid 228dfe81-b0a0-485b-85e9-316a84931c3f))
    (pin "4" (uuid 9dfb88f2-51f4-4a84-aba7-dba206623b85))
    (pin "5" (uuid af39a40a-b987-4efc-8f28-bf66c855ac10))
    (pin "6" (uuid 0b4a192e-e939-44a6-a4d6-bcc2a9a69af1))
    (instances
      (project "Team1_project"
        (path "/2e9fab27-2079-4468-88ae-c6d7a5f085c6/00000000-0000-0000-0000-0000640241ba"
          (reference "U8") (unit 1)
        )
      )
    )
  )

  (symbol (lib_name "DMP2160UW-7_1") (lib_id "Team1_Symbols:DMP2160UW-7") (at 108.585 74.295 0) (mirror y) (unit 1)
    (in_bom yes) (on_board yes) (dnp no) (fields_autoplaced)
    (uuid 0de6043c-f136-4764-9080-89e5a440aac1)
    (property "Reference" "U10" (at 108.585 65.405 0)
      (effects (font (size 1.27 1.27)))
    )
    (property "Value" "DMP2160UW-7" (at 108.585 67.945 0)
      (effects (font (size 1.27 1.27)))
    )
    (property "Footprint" "CustomLibs:SOT103P240X110-3N" (at 108.585 74.295 0)
      (effects (font (size 1.27 1.27)) (justify bottom) hide)
    )
    (property "Datasheet" "" (at 108.585 74.295 0)
      (effects (font (size 1.27 1.27)) hide)
    )
    (property "SUPPLIER" "DIODES INC." (at 108.585 74.295 0)
      (effects (font (size 1.27 1.27)) (justify bottom) hide)
    )
    (property "PACKAGE" "SOT-23-3" (at 108.585 74.295 0)
      (effects (font (size 1.27 1.27)) (justify bottom) hide)
    )
    (property "OC_NEWARK" "23T5606" (at 108.585 74.295 0)
      (effects (font (size 1.27 1.27)) (justify bottom) hide)
    )
    (property "OC_FARNELL" "1858672" (at 108.585 74.295 0)
      (effects (font (size 1.27 1.27)) (justify bottom) hide)
    )
    (property "MPN" "DMP2160UW-7" (at 108.585 74.295 0)
      (effects (font (size 1.27 1.27)) (justify bottom) hide)
    )
    (property "JLC Part Name" "C99272" (at 108.585 74.295 0)
      (effects (font (size 1.27 1.27)) hide)
    )
    (property "Price" "0.0667 " (at 108.585 74.295 0)
      (effects (font (size 1.27 1.27)) hide)
    )
    (pin "1" (uuid 5fa830f3-ee7d-4f9b-8b9f-694eb26090ca))
    (pin "2" (uuid dbef0d3d-35ba-468a-8545-18399a6cfb4e))
    (pin "3" (uuid f8c896ea-6a6e-4951-954f-ff96a0866012))
    (instances
      (project "Team1_project"
        (path "/2e9fab27-2079-4468-88ae-c6d7a5f085c6/00000000-0000-0000-0000-0000640241ba"
          (reference "U10") (unit 1)
        )
      )
    )
  )

  (symbol (lib_id "power:GND") (at 117.475 139.7 0) (unit 1)
    (in_bom yes) (on_board yes) (dnp no) (fields_autoplaced)
    (uuid 268694c4-c8f8-449b-9c3a-7a3e669342f2)
    (property "Reference" "#PWR040" (at 117.475 146.05 0)
      (effects (font (size 1.27 1.27)) hide)
    )
    (property "Value" "GND" (at 117.475 144.78 0)
      (effects (font (size 1.27 1.27)))
    )
    (property "Footprint" "" (at 117.475 139.7 0)
      (effects (font (size 1.27 1.27)) hide)
    )
    (property "Datasheet" "" (at 117.475 139.7 0)
      (effects (font (size 1.27 1.27)) hide)
    )
    (pin "1" (uuid be27e8bd-8f0f-4103-bc65-21065655d4b3))
    (instances
      (project "Team1_project"
        (path "/2e9fab27-2079-4468-88ae-c6d7a5f085c6/00000000-0000-0000-0000-0000640241ba"
          (reference "#PWR040") (unit 1)
        )
      )
    )
  )

  (symbol (lib_id "power:+3.3V") (at 31.75 60.96 0) (unit 1)
    (in_bom yes) (on_board yes) (dnp no) (fields_autoplaced)
    (uuid 300e23ef-3da1-4e19-bc82-847e4fae78fa)
    (property "Reference" "#PWR034" (at 31.75 64.77 0)
      (effects (font (size 1.27 1.27)) hide)
    )
    (property "Value" "+3.3V" (at 31.75 57.15 0)
      (effects (font (size 1.27 1.27)))
    )
    (property "Footprint" "" (at 31.75 60.96 0)
      (effects (font (size 1.27 1.27)) hide)
    )
    (property "Datasheet" "" (at 31.75 60.96 0)
      (effects (font (size 1.27 1.27)) hide)
    )
    (pin "1" (uuid 24532985-0fcf-4505-a7d3-60db6bcf1212))
    (instances
      (project "Team1_project"
        (path "/2e9fab27-2079-4468-88ae-c6d7a5f085c6/00000000-0000-0000-0000-0000640241ba"
          (reference "#PWR034") (unit 1)
        )
      )
    )
  )

  (symbol (lib_id "Connector:Conn_01x02_Pin") (at 31.75 173.99 0) (unit 1)
    (in_bom no) (on_board yes) (dnp yes)
    (uuid 387e4735-0759-4d80-a939-7ae22aa1da6d)
    (property "Reference" "J18" (at 32.385 169.545 0)
      (effects (font (size 1.27 1.27)))
    )
    (property "Value" "Conn_01x02_Pin" (at 32.385 172.085 0)
      (effects (font (size 1.27 1.27)))
    )
    (property "Footprint" "Connector_PinHeader_2.54mm:PinHeader_1x02_P2.54mm_Vertical" (at 31.75 173.99 0)
      (effects (font (size 1.27 1.27)) hide)
    )
    (property "Datasheet" "~" (at 31.75 173.99 0)
      (effects (font (size 1.27 1.27)) hide)
    )
    (property "JLC Part Name" "DNP" (at 31.75 173.99 0)
      (effects (font (size 1.27 1.27)) hide)
    )
    (property "Price" "" (at 31.75 173.99 0)
      (effects (font (size 1.27 1.27)) hide)
    )
    (pin "1" (uuid ed3de8fd-6849-4fe6-ad7d-fb978a3f2e61))
    (pin "2" (uuid b0849460-8c2b-4913-bb0a-e56043a8cceb))
    (instances
      (project "Team1_project"
        (path "/2e9fab27-2079-4468-88ae-c6d7a5f085c6/00000000-0000-0000-0000-0000640241ba"
          (reference "J18") (unit 1)
        )
      )
    )
  )

  (symbol (lib_name "DMP2160UW-7_2") (lib_id "Team1_Symbols:DMP2160UW-7") (at 135.255 121.92 0) (mirror y) (unit 1)
    (in_bom yes) (on_board yes) (dnp yes) (fields_autoplaced)
    (uuid 3b8f1c4d-d257-4d27-84d5-e6c6ba5ffd8d)
    (property "Reference" "U11" (at 135.255 113.03 0)
      (effects (font (size 1.27 1.27)))
    )
    (property "Value" "DMP2160UW-7" (at 135.255 115.57 0)
      (effects (font (size 1.27 1.27)))
    )
    (property "Footprint" "CustomLibs:SOT103P240X110-3N" (at 135.255 121.92 0)
      (effects (font (size 1.27 1.27)) (justify bottom) hide)
    )
    (property "Datasheet" "" (at 135.255 121.92 0)
      (effects (font (size 1.27 1.27)) hide)
    )
    (property "SUPPLIER" "DIODES INC." (at 135.255 121.92 0)
      (effects (font (size 1.27 1.27)) (justify bottom) hide)
    )
    (property "PACKAGE" "SOT-23-3" (at 135.255 121.92 0)
      (effects (font (size 1.27 1.27)) (justify bottom) hide)
    )
    (property "OC_NEWARK" "23T5606" (at 135.255 121.92 0)
      (effects (font (size 1.27 1.27)) (justify bottom) hide)
    )
    (property "OC_FARNELL" "1858672" (at 135.255 121.92 0)
      (effects (font (size 1.27 1.27)) (justify bottom) hide)
    )
    (property "MPN" "DMP2160UW-7" (at 135.255 121.92 0)
      (effects (font (size 1.27 1.27)) (justify bottom) hide)
    )
    (property "JLC Part Name" "C99272" (at 135.255 121.92 0)
      (effects (font (size 1.27 1.27)) hide)
    )
    (property "Price" "0.0667 " (at 135.255 121.92 0)
      (effects (font (size 1.27 1.27)) hide)
    )
    (pin "1" (uuid 2488c7e1-7d9a-42ca-a83e-d156895dfbe3))
    (pin "2" (uuid 0ebf21c7-e327-4c7c-b05f-180e38d622c8))
    (pin "3" (uuid 9cbb72d1-dca2-405d-9959-e3ed067e93db))
    (instances
      (project "Team1_project"
        (path "/2e9fab27-2079-4468-88ae-c6d7a5f085c6/00000000-0000-0000-0000-0000640241ba"
          (reference "U11") (unit 1)
        )
      )
    )
  )

  (symbol (lib_id "Connector:Conn_01x02_Pin") (at 31.75 163.195 0) (unit 1)
    (in_bom no) (on_board yes) (dnp yes)
    (uuid 4e3d608e-2952-460b-89fe-39a499541066)
    (property "Reference" "J17" (at 32.385 158.75 0)
      (effects (font (size 1.27 1.27)))
    )
    (property "Value" "Conn_01x02_Pin" (at 32.385 161.29 0)
      (effects (font (size 1.27 1.27)))
    )
    (property "Footprint" "Connector_PinHeader_2.54mm:PinHeader_1x02_P2.54mm_Vertical" (at 31.75 163.195 0)
      (effects (font (size 1.27 1.27)) hide)
    )
    (property "Datasheet" "~" (at 31.75 163.195 0)
      (effects (font (size 1.27 1.27)) hide)
    )
    (property "JLC Part Name" "DNP" (at 31.75 163.195 0)
      (effects (font (size 1.27 1.27)) hide)
    )
    (property "Price" "" (at 31.75 163.195 0)
      (effects (font (size 1.27 1.27)) hide)
    )
    (pin "1" (uuid 9c1a5ac1-f959-4661-b96f-6a0ee8baa86c))
    (pin "2" (uuid 20917396-347d-4652-b7f0-47d863c90e8e))
    (instances
      (project "Team1_project"
        (path "/2e9fab27-2079-4468-88ae-c6d7a5f085c6/00000000-0000-0000-0000-0000640241ba"
          (reference "J17") (unit 1)
        )
      )
    )
  )

  (symbol (lib_id "power:+3.3V") (at 195.58 111.76 0) (unit 1)
    (in_bom yes) (on_board yes) (dnp no) (fields_autoplaced)
    (uuid 5477235c-5d31-4538-bb4d-5d44e46b6c4b)
    (property "Reference" "#PWR044" (at 195.58 115.57 0)
      (effects (font (size 1.27 1.27)) hide)
    )
    (property "Value" "+BATT" (at 195.58 107.95 0)
      (effects (font (size 1.27 1.27)))
    )
    (property "Footprint" "" (at 195.58 111.76 0)
      (effects (font (size 1.27 1.27)) hide)
    )
    (property "Datasheet" "" (at 195.58 111.76 0)
      (effects (font (size 1.27 1.27)) hide)
    )
    (pin "1" (uuid 5e388e34-616f-4ae0-b05c-0a5007d9b39b))
    (instances
      (project "Team1_project"
        (path "/2e9fab27-2079-4468-88ae-c6d7a5f085c6/00000000-0000-0000-0000-0000640241ba"
          (reference "#PWR044") (unit 1)
        )
      )
    )
  )

  (symbol (lib_id "Connector:Conn_01x01_Pin") (at 30.48 185.42 0) (unit 1)
    (in_bom no) (on_board yes) (dnp yes)
    (uuid 54d01039-78a5-4db5-aa88-42599f4309a3)
    (property "Reference" "J16" (at 31.115 180.34 0)
      (effects (font (size 1.27 1.27)))
    )
    (property "Value" "Conn_01x01_Pin" (at 31.115 182.88 0)
      (effects (font (size 1.27 1.27)))
    )
    (property "Footprint" "Connector_PinHeader_2.54mm:PinHeader_1x01_P2.54mm_Vertical" (at 30.48 185.42 0)
      (effects (font (size 1.27 1.27)) hide)
    )
    (property "Datasheet" "~" (at 30.48 185.42 0)
      (effects (font (size 1.27 1.27)) hide)
    )
    (property "JLC Part Name" "DNP" (at 30.48 185.42 0)
      (effects (font (size 1.27 1.27)) hide)
    )
    (pin "1" (uuid c27055d7-2414-4cf4-9f41-cd0a14ffd082))
    (instances
      (project "Team1_project"
        (path "/2e9fab27-2079-4468-88ae-c6d7a5f085c6/00000000-0000-0000-0000-0000640241ba"
          (reference "J16") (unit 1)
        )
      )
    )
  )

  (symbol (lib_id "Device:R") (at 195.58 121.92 0) (unit 1)
    (in_bom yes) (on_board yes) (dnp no) (fields_autoplaced)
    (uuid 5b1b099b-6a48-485f-a583-fc17b18163b8)
    (property "Reference" "R30" (at 198.12 121.285 0)
      (effects (font (size 1.27 1.27)) (justify left))
    )
    (property "Value" "2k2" (at 198.12 123.825 0)
      (effects (font (size 1.27 1.27)) (justify left))
    )
    (property "Footprint" "Resistor_SMD:R_0805_2012Metric" (at 193.802 121.92 90)
      (effects (font (size 1.27 1.27)) hide)
    )
    (property "Datasheet" "~" (at 195.58 121.92 0)
      (effects (font (size 1.27 1.27)) hide)
    )
    (property "Price" "0.01" (at 195.58 121.92 0)
      (effects (font (size 1.27 1.27)) hide)
    )
    (property "JLC Part Name" "C17506" (at 195.58 121.92 0)
      (effects (font (size 1.27 1.27)) hide)
    )
    (pin "1" (uuid c2c949eb-f4bc-479e-a3f4-3c25d022fdf0))
    (pin "2" (uuid 14c121e0-a8f0-4a69-96b2-cdb6fbd837e4))
    (instances
      (project "Team1_project"
        (path "/2e9fab27-2079-4468-88ae-c6d7a5f085c6/00000000-0000-0000-0000-0000640241ba"
          (reference "R30") (unit 1)
        )
      )
    )
  )

  (symbol (lib_id "Device:R") (at 117.475 133.35 0) (unit 1)
    (in_bom yes) (on_board yes) (dnp yes)
    (uuid 5ecbac90-6a1e-412a-aeca-b3125073a6c3)
    (property "Reference" "R29" (at 118.11 132.715 0)
      (effects (font (size 1.27 1.27)) (justify left))
    )
    (property "Value" "2k2" (at 118.11 135.255 0)
      (effects (font (size 1.27 1.27)) (justify left))
    )
    (property "Footprint" "Resistor_SMD:R_0805_2012Metric" (at 115.697 133.35 90)
      (effects (font (size 1.27 1.27)) hide)
    )
    (property "Datasheet" "~" (at 117.475 133.35 0)
      (effects (font (size 1.27 1.27)) hide)
    )
    (property "JLC Part Name" "C17520" (at 117.475 133.35 0)
      (effects (font (size 1.27 1.27)) hide)
    )
    (property "Price" "0.01" (at 117.475 133.35 0)
      (effects (font (size 1.27 1.27)) hide)
    )
    (pin "1" (uuid 045cb42f-4096-4b76-ae6a-90fe9a0ee218))
    (pin "2" (uuid aa58abab-ecbd-4fea-a24c-166fa3cf134c))
    (instances
      (project "Team1_project"
        (path "/2e9fab27-2079-4468-88ae-c6d7a5f085c6/00000000-0000-0000-0000-0000640241ba"
          (reference "R29") (unit 1)
        )
      )
    )
  )

  (symbol (lib_id "Team1_Symbols:SS39ET") (at 262.89 53.34 0) (unit 1)
    (in_bom yes) (on_board yes) (dnp no)
    (uuid 62275593-a0bf-46ee-8b0f-4796daf1d1b5)
    (property "Reference" "U13" (at 274.32 53.975 0)
      (effects (font (size 1.27 1.27)) (justify left))
    )
    (property "Value" "SS39ET" (at 270.51 64.262 0)
      (effects (font (size 1.27 1.27)))
    )
    (property "Footprint" "CustomLibs:SS39ET" (at 262.89 53.34 0)
      (effects (font (size 1.27 1.27)) hide)
    )
    (property "Datasheet" "" (at 262.89 53.34 0)
      (effects (font (size 1.27 1.27)) hide)
    )
    (property "JLC Part Name" "C126669" (at 262.89 53.34 0)
      (effects (font (size 1.27 1.27)) hide)
    )
    (property "Price" "0.3981 " (at 262.89 53.34 0)
      (effects (font (size 1.27 1.27)) hide)
    )
    (pin "1" (uuid 22518863-5be5-4e47-91b7-d66166712f11))
    (pin "2" (uuid d45677c8-b618-45b8-bbd7-17cdeda6c6e5))
    (pin "3" (uuid a7ed603e-c278-4459-941a-58abbc8dd7ab))
    (instances
      (project "Team1_project"
        (path "/2e9fab27-2079-4468-88ae-c6d7a5f085c6/00000000-0000-0000-0000-0000640241ba"
          (reference "U13") (unit 1)
        )
      )
    )
  )

  (symbol (lib_id "Device:R") (at 228.6 64.77 0) (unit 1)
    (in_bom yes) (on_board yes) (dnp no) (fields_autoplaced)
    (uuid 64ec8e68-8605-4045-b9ec-fef821cccabb)
    (property "Reference" "R32" (at 231.14 64.135 0)
      (effects (font (size 1.27 1.27)) (justify left))
    )
    (property "Value" "2k2" (at 231.14 66.675 0)
      (effects (font (size 1.27 1.27)) (justify left))
    )
    (property "Footprint" "Resistor_SMD:R_0805_2012Metric" (at 226.822 64.77 90)
      (effects (font (size 1.27 1.27)) hide)
    )
    (property "Datasheet" "~" (at 228.6 64.77 0)
      (effects (font (size 1.27 1.27)) hide)
    )
    (property "JLC Part Name" "C17520" (at 228.6 64.77 0)
      (effects (font (size 1.27 1.27)) hide)
    )
    (property "Price" "0.01" (at 228.6 64.77 0)
      (effects (font (size 1.27 1.27)) hide)
    )
    (pin "1" (uuid f961d106-b205-44c5-a239-2d1e7f7e80b9))
    (pin "2" (uuid 0840bd6f-0f31-4778-bb35-a94991d5cd78))
    (instances
      (project "Team1_project"
        (path "/2e9fab27-2079-4468-88ae-c6d7a5f085c6/00000000-0000-0000-0000-0000640241ba"
          (reference "R32") (unit 1)
        )
      )
    )
  )

  (symbol (lib_id "power:GND") (at 86.36 92.075 0) (unit 1)
    (in_bom yes) (on_board yes) (dnp no) (fields_autoplaced)
    (uuid 66838f4f-7c4c-46be-9512-88c690ea2b6f)
    (property "Reference" "#PWR038" (at 86.36 98.425 0)
      (effects (font (size 1.27 1.27)) hide)
    )
    (property "Value" "GND" (at 86.36 97.155 0)
      (effects (font (size 1.27 1.27)))
    )
    (property "Footprint" "" (at 86.36 92.075 0)
      (effects (font (size 1.27 1.27)) hide)
    )
    (property "Datasheet" "" (at 86.36 92.075 0)
      (effects (font (size 1.27 1.27)) hide)
    )
    (pin "1" (uuid 76b05eb6-07c1-4e9f-8610-ff14c94354f8))
    (instances
      (project "Team1_project"
        (path "/2e9fab27-2079-4468-88ae-c6d7a5f085c6/00000000-0000-0000-0000-0000640241ba"
          (reference "#PWR038") (unit 1)
        )
      )
    )
  )

  (symbol (lib_id "power:+3.3V") (at 189.865 53.34 0) (mirror y) (unit 1)
    (in_bom yes) (on_board yes) (dnp no) (fields_autoplaced)
    (uuid 6c7b13f4-23d8-45a3-af08-2299f07400cd)
    (property "Reference" "#PWR043" (at 189.865 57.15 0)
      (effects (font (size 1.27 1.27)) hide)
    )
    (property "Value" "+3.3V" (at 189.865 49.53 0)
      (effects (font (size 1.27 1.27)))
    )
    (property "Footprint" "" (at 189.865 53.34 0)
      (effects (font (size 1.27 1.27)) hide)
    )
    (property "Datasheet" "" (at 189.865 53.34 0)
      (effects (font (size 1.27 1.27)) hide)
    )
    (pin "1" (uuid 80381f77-9716-48b8-95c3-fd0558c2a847))
    (instances
      (project "Team1_project"
        (path "/2e9fab27-2079-4468-88ae-c6d7a5f085c6/00000000-0000-0000-0000-0000640241ba"
          (reference "#PWR043") (unit 1)
        )
      )
    )
  )

  (symbol (lib_id "power:GND") (at 195.58 149.86 0) (unit 1)
    (in_bom yes) (on_board yes) (dnp no) (fields_autoplaced)
    (uuid 6d1ea555-5bf2-47c2-a268-9c560de71a81)
    (property "Reference" "#PWR045" (at 195.58 156.21 0)
      (effects (font (size 1.27 1.27)) hide)
    )
    (property "Value" "GND" (at 195.58 154.94 0)
      (effects (font (size 1.27 1.27)))
    )
    (property "Footprint" "" (at 195.58 149.86 0)
      (effects (font (size 1.27 1.27)) hide)
    )
    (property "Datasheet" "" (at 195.58 149.86 0)
      (effects (font (size 1.27 1.27)) hide)
    )
    (pin "1" (uuid 56cbff3d-5873-40a8-8915-c65e158f9024))
    (instances
      (project "Team1_project"
        (path "/2e9fab27-2079-4468-88ae-c6d7a5f085c6/00000000-0000-0000-0000-0000640241ba"
          (reference "#PWR045") (unit 1)
        )
      )
    )
  )

  (symbol (lib_id "Device:R") (at 195.58 142.24 0) (unit 1)
    (in_bom yes) (on_board yes) (dnp no) (fields_autoplaced)
    (uuid 6f186f02-c93e-4abb-b2cf-eda7e467116e)
    (property "Reference" "R31" (at 198.12 141.605 0)
      (effects (font (size 1.27 1.27)) (justify left))
    )
    (property "Value" "2k2" (at 198.12 144.145 0)
      (effects (font (size 1.27 1.27)) (justify left))
    )
    (property "Footprint" "Resistor_SMD:R_0805_2012Metric" (at 193.802 142.24 90)
      (effects (font (size 1.27 1.27)) hide)
    )
    (property "Datasheet" "~" (at 195.58 142.24 0)
      (effects (font (size 1.27 1.27)) hide)
    )
    (property "Price" "0.01" (at 195.58 142.24 0)
      (effects (font (size 1.27 1.27)) hide)
    )
    (property "JLC Part Name" "C17520" (at 195.58 142.24 0)
      (effects (font (size 1.27 1.27)) hide)
    )
    (pin "1" (uuid 4f4a2fc8-6c7b-4c6f-afaf-e7d9c91bf2e5))
    (pin "2" (uuid 8ff7a1bc-916a-4063-b6d1-5611e51b4c5e))
    (instances
      (project "Team1_project"
        (path "/2e9fab27-2079-4468-88ae-c6d7a5f085c6/00000000-0000-0000-0000-0000640241ba"
          (reference "R31") (unit 1)
        )
      )
    )
  )

  (symbol (lib_id "power:GND") (at 246.38 58.42 0) (unit 1)
    (in_bom yes) (on_board yes) (dnp no) (fields_autoplaced)
    (uuid 7838c5b9-c03d-4fdd-968e-8d95895da6e0)
    (property "Reference" "#PWR047" (at 246.38 64.77 0)
      (effects (font (size 1.27 1.27)) hide)
    )
    (property "Value" "GND" (at 246.38 63.5 0)
      (effects (font (size 1.27 1.27)))
    )
    (property "Footprint" "" (at 246.38 58.42 0)
      (effects (font (size 1.27 1.27)) hide)
    )
    (property "Datasheet" "" (at 246.38 58.42 0)
      (effects (font (size 1.27 1.27)) hide)
    )
    (pin "1" (uuid d13e3490-882c-48c4-a779-86ba2e0f4428))
    (instances
      (project "Team1_project"
        (path "/2e9fab27-2079-4468-88ae-c6d7a5f085c6/00000000-0000-0000-0000-0000640241ba"
          (reference "#PWR047") (unit 1)
        )
      )
    )
  )

  (symbol (lib_id "power:GND") (at 228.6 71.12 0) (unit 1)
    (in_bom yes) (on_board yes) (dnp no) (fields_autoplaced)
    (uuid 7cd26535-7bbc-4f91-96d3-ea8512b61ff2)
    (property "Reference" "#PWR046" (at 228.6 77.47 0)
      (effects (font (size 1.27 1.27)) hide)
    )
    (property "Value" "GND" (at 228.6 76.2 0)
      (effects (font (size 1.27 1.27)))
    )
    (property "Footprint" "" (at 228.6 71.12 0)
      (effects (font (size 1.27 1.27)) hide)
    )
    (property "Datasheet" "" (at 228.6 71.12 0)
      (effects (font (size 1.27 1.27)) hide)
    )
    (pin "1" (uuid b68e1968-eb23-4e63-9469-ef04b7915835))
    (instances
      (project "Team1_project"
        (path "/2e9fab27-2079-4468-88ae-c6d7a5f085c6/00000000-0000-0000-0000-0000640241ba"
          (reference "#PWR046") (unit 1)
        )
      )
    )
  )

  (symbol (lib_id "Device:C") (at 96.52 125.73 0) (unit 1)
    (in_bom yes) (on_board yes) (dnp yes) (fields_autoplaced)
    (uuid 8b70842a-1bcf-45b0-96f5-416b7468d12b)
    (property "Reference" "C?" (at 100.33 125.095 0)
      (effects (font (size 1.27 1.27)) (justify left))
    )
    (property "Value" "0.1uF" (at 100.33 127.635 0)
      (effects (font (size 1.27 1.27)) (justify left))
    )
    (property "Footprint" "Capacitor_SMD:C_1206_3216Metric" (at 97.4852 129.54 0)
      (effects (font (size 1.27 1.27)) hide)
    )
    (property "Datasheet" "~" (at 96.52 125.73 0)
      (effects (font (size 1.27 1.27)) hide)
    )
    (property "Price" "0.01" (at 96.52 125.73 0)
      (effects (font (size 1.27 1.27)) hide)
    )
    (property "JLC Part Name" "C24497" (at 96.52 125.73 0)
      (effects (font (size 1.27 1.27)) hide)
    )
    (pin "1" (uuid ba75c8d9-51c6-4bad-a7cf-c21dbe61359f))
    (pin "2" (uuid 3993767c-d0e8-4aaa-aba1-2119190839a1))
    (instances
      (project "Personal_Drafts"
        (path "/209120cb-15d4-4622-b960-6b644f5d28eb/a98e5c82-e6f2-44c4-87c9-59a0d951ee77"
          (reference "C?") (unit 1)
        )
      )
      (project "Team1_project"
        (path "/2e9fab27-2079-4468-88ae-c6d7a5f085c6/00000000-0000-0000-0000-0000640241ba"
          (reference "C22") (unit 1)
        )
      )
    )
  )

  (symbol (lib_id "Device:R") (at 31.75 77.47 0) (unit 1)
    (in_bom yes) (on_board yes) (dnp no) (fields_autoplaced)
    (uuid 91d45ea8-c408-4763-b0cb-9529f5a4677f)
    (property "Reference" "R?" (at 34.29 76.835 0)
      (effects (font (size 1.27 1.27)) (justify left))
    )
    (property "Value" "2k2" (at 34.29 79.375 0)
      (effects (font (size 1.27 1.27)) (justify left))
    )
    (property "Footprint" "Resistor_SMD:R_0805_2012Metric" (at 29.972 77.47 90)
      (effects (font (size 1.27 1.27)) hide)
    )
    (property "Datasheet" "~" (at 31.75 77.47 0)
      (effects (font (size 1.27 1.27)) hide)
    )
    (property "Price" "0.01" (at 31.75 77.47 0)
      (effects (font (size 1.27 1.27)) hide)
    )
    (property "JLC Part Name" "C17520" (at 31.75 77.47 0)
      (effects (font (size 1.27 1.27)) hide)
    )
    (pin "1" (uuid 51986b5e-86ea-481f-a76a-3eb57ec35223))
    (pin "2" (uuid 75d8fcf8-4203-4a26-9fdf-6d452a2910f5))
    (instances
      (project "Personal_Drafts"
        (path "/209120cb-15d4-4622-b960-6b644f5d28eb/a98e5c82-e6f2-44c4-87c9-59a0d951ee77"
          (reference "R?") (unit 1)
        )
      )
      (project "Team1_project"
        (path "/2e9fab27-2079-4468-88ae-c6d7a5f085c6/00000000-0000-0000-0000-0000640241ba"
          (reference "R27") (unit 1)
        )
      )
    )
  )

  (symbol (lib_id "Connector:Conn_01x02_Pin") (at 78.105 172.085 0) (unit 1)
    (in_bom no) (on_board yes) (dnp yes)
    (uuid a0286f43-1b7b-4a8d-ba50-759c3b3a3973)
    (property "Reference" "J20" (at 77.47 167.005 0)
      (effects (font (size 1.27 1.27)))
    )
    (property "Value" "Conn_01x02_Pin" (at 78.74 170.18 0)
      (effects (font (size 1.27 1.27)))
    )
    (property "Footprint" "Connector_PinHeader_2.54mm:PinHeader_1x02_P2.54mm_Vertical" (at 78.105 172.085 0)
      (effects (font (size 1.27 1.27)) hide)
    )
    (property "Datasheet" "~" (at 78.105 172.085 0)
      (effects (font (size 1.27 1.27)) hide)
    )
    (property "JLC Part Name" "DNP" (at 78.105 172.085 0)
      (effects (font (size 1.27 1.27)) hide)
    )
    (property "Price" "" (at 78.105 172.085 0)
      (effects (font (size 1.27 1.27)) hide)
    )
    (pin "1" (uuid 207ef464-3ea5-4e1d-ae07-76a5041ff368))
    (pin "2" (uuid 8d81aa85-62f9-4fed-a8b5-77a14be43325))
    (instances
      (project "Team1_project"
        (path "/2e9fab27-2079-4468-88ae-c6d7a5f085c6/00000000-0000-0000-0000-0000640241ba"
          (reference "J20") (unit 1)
        )
      )
    )
  )

  (symbol (lib_id "power:+3.3V") (at 140.97 74.93 0) (unit 1)
    (in_bom yes) (on_board yes) (dnp no) (fields_autoplaced)
    (uuid a2423617-972d-4baf-8700-bd6b7583ff54)
    (property "Reference" "#PWR041" (at 140.97 78.74 0)
      (effects (font (size 1.27 1.27)) hide)
    )
    (property "Value" "+3.3V" (at 140.97 71.12 0)
      (effects (font (size 1.27 1.27)))
    )
    (property "Footprint" "" (at 140.97 74.93 0)
      (effects (font (size 1.27 1.27)) hide)
    )
    (property "Datasheet" "" (at 140.97 74.93 0)
      (effects (font (size 1.27 1.27)) hide)
    )
    (pin "1" (uuid 288ddfd9-ac03-40ca-ba77-0df543672e22))
    (instances
      (project "Team1_project"
        (path "/2e9fab27-2079-4468-88ae-c6d7a5f085c6/00000000-0000-0000-0000-0000640241ba"
          (reference "#PWR041") (unit 1)
        )
      )
    )
  )

  (symbol (lib_id "Connector:Conn_01x02_Pin") (at 77.47 160.655 0) (unit 1)
    (in_bom no) (on_board yes) (dnp yes)
    (uuid a677796d-8e66-4d83-a395-08ccf00b9b15)
    (property "Reference" "J19" (at 76.835 155.575 0)
      (effects (font (size 1.27 1.27)))
    )
    (property "Value" "Conn_01x02_Pin" (at 78.105 158.75 0)
      (effects (font (size 1.27 1.27)))
    )
    (property "Footprint" "Connector_PinHeader_2.54mm:PinHeader_1x02_P2.54mm_Vertical" (at 77.47 160.655 0)
      (effects (font (size 1.27 1.27)) hide)
    )
    (property "Datasheet" "~" (at 77.47 160.655 0)
      (effects (font (size 1.27 1.27)) hide)
    )
    (property "JLC Part Name" "DNP" (at 77.47 160.655 0)
      (effects (font (size 1.27 1.27)) hide)
    )
    (property "Price" "" (at 77.47 160.655 0)
      (effects (font (size 1.27 1.27)) hide)
    )
    (pin "1" (uuid a24ae355-2e0a-48e2-a271-4a0ebca906e3))
    (pin "2" (uuid b38040c9-ba4b-45c3-8685-9ed4cf95180c))
    (instances
      (project "Team1_project"
        (path "/2e9fab27-2079-4468-88ae-c6d7a5f085c6/00000000-0000-0000-0000-0000640241ba"
          (reference "J19") (unit 1)
        )
      )
    )
  )

  (symbol (lib_id "Device:C") (at 107.95 125.73 0) (unit 1)
    (in_bom yes) (on_board yes) (dnp yes) (fields_autoplaced)
    (uuid b1f8f929-0714-41a1-a786-ec63add490eb)
    (property "Reference" "C?" (at 111.76 125.095 0)
      (effects (font (size 1.27 1.27)) (justify left))
    )
    (property "Value" "4.7uF" (at 111.76 127.635 0)
      (effects (font (size 1.27 1.27)) (justify left))
    )
    (property "Footprint" "Capacitor_SMD:C_1206_3216Metric" (at 108.9152 129.54 0)
      (effects (font (size 1.27 1.27)) hide)
    )
    (property "Datasheet" "~" (at 107.95 125.73 0)
      (effects (font (size 1.27 1.27)) hide)
    )
    (property "Price" "0.03" (at 107.95 125.73 0)
      (effects (font (size 1.27 1.27)) hide)
    )
    (property "JLC Part Name" "C29823" (at 107.95 125.73 0)
      (effects (font (size 1.27 1.27)) hide)
    )
    (pin "1" (uuid b0794ff2-286f-4ea8-9a4b-27e116558853))
    (pin "2" (uuid 8c89c3c5-149f-4a8c-9609-0c7ff311bb57))
    (instances
      (project "Personal_Drafts"
        (path "/209120cb-15d4-4622-b960-6b644f5d28eb/a98e5c82-e6f2-44c4-87c9-59a0d951ee77"
          (reference "C?") (unit 1)
        )
      )
      (project "Team1_project"
        (path "/2e9fab27-2079-4468-88ae-c6d7a5f085c6/00000000-0000-0000-0000-0000640241ba"
          (reference "C23") (unit 1)
        )
      )
    )
  )

  (symbol (lib_id "Device:R") (at 86.36 85.725 0) (unit 1)
    (in_bom yes) (on_board yes) (dnp no) (fields_autoplaced)
    (uuid b9253e71-7d4a-49b3-9535-bcc6788ef5aa)
    (property "Reference" "R28" (at 88.9 85.09 0)
      (effects (font (size 1.27 1.27)) (justify left))
    )
    (property "Value" "2k2" (at 88.9 87.63 0)
      (effects (font (size 1.27 1.27)) (justify left))
    )
    (property "Footprint" "Resistor_SMD:R_0805_2012Metric" (at 84.582 85.725 90)
      (effects (font (size 1.27 1.27)) hide)
    )
    (property "Datasheet" "~" (at 86.36 85.725 0)
      (effects (font (size 1.27 1.27)) hide)
    )
    (property "JLC Part Name" "C17520" (at 86.36 85.725 0)
      (effects (font (size 1.27 1.27)) hide)
    )
    (property "Price" "0.01" (at 86.36 85.725 0)
      (effects (font (size 1.27 1.27)) hide)
    )
    (pin "1" (uuid e3cea1c9-ce20-4a5a-9a81-307fff66c728))
    (pin "2" (uuid 65165164-c27f-46a6-ad43-0d4e2d33bb53))
    (instances
      (project "Team1_project"
        (path "/2e9fab27-2079-4468-88ae-c6d7a5f085c6/00000000-0000-0000-0000-0000640241ba"
          (reference "R28") (unit 1)
        )
      )
    )
  )

  (symbol (lib_id "power:GND") (at 102.87 129.54 0) (unit 1)
    (in_bom yes) (on_board yes) (dnp no) (fields_autoplaced)
    (uuid be89fbae-69a6-4244-a577-de767502977f)
    (property "Reference" "#PWR039" (at 102.87 135.89 0)
      (effects (font (size 1.27 1.27)) hide)
    )
    (property "Value" "GND" (at 102.87 134.62 0)
      (effects (font (size 1.27 1.27)))
    )
    (property "Footprint" "" (at 102.87 129.54 0)
      (effects (font (size 1.27 1.27)) hide)
    )
    (property "Datasheet" "" (at 102.87 129.54 0)
      (effects (font (size 1.27 1.27)) hide)
    )
    (pin "1" (uuid 4fc8c522-e7a5-414f-8f25-2efc1b172471))
    (instances
      (project "Team1_project"
        (path "/2e9fab27-2079-4468-88ae-c6d7a5f085c6/00000000-0000-0000-0000-0000640241ba"
          (reference "#PWR039") (unit 1)
        )
      )
    )
  )

  (symbol (lib_id "power:GND") (at 72.39 142.24 0) (unit 1)
    (in_bom yes) (on_board yes) (dnp no) (fields_autoplaced)
    (uuid c4768046-d7af-478d-a3c2-2f412c30d1fd)
    (property "Reference" "#PWR036" (at 72.39 148.59 0)
      (effects (font (size 1.27 1.27)) hide)
    )
    (property "Value" "GND" (at 72.39 147.32 0)
      (effects (font (size 1.27 1.27)))
    )
    (property "Footprint" "" (at 72.39 142.24 0)
      (effects (font (size 1.27 1.27)) hide)
    )
    (property "Datasheet" "" (at 72.39 142.24 0)
      (effects (font (size 1.27 1.27)) hide)
    )
    (pin "1" (uuid 383e662c-cffd-4304-a649-12bd6e582b91))
    (instances
      (project "Team1_project"
        (path "/2e9fab27-2079-4468-88ae-c6d7a5f085c6/00000000-0000-0000-0000-0000640241ba"
          (reference "#PWR036") (unit 1)
        )
      )
    )
  )

  (symbol (lib_id "Team1_Symbols:DMP2160UW-7") (at 210.82 48.26 0) (unit 1)
    (in_bom yes) (on_board yes) (dnp no)
    (uuid c5c3663f-3991-48e0-9470-bcef4ee90ee5)
    (property "Reference" "U12" (at 210.82 39.37 0)
      (effects (font (size 1.27 1.27)))
    )
    (property "Value" "DMP2160UW-7" (at 210.82 41.91 0)
      (effects (font (size 1.27 1.27)))
    )
    (property "Footprint" "CustomLibs:SOT103P240X110-3N" (at 210.82 48.26 0)
      (effects (font (size 1.27 1.27)) (justify bottom) hide)
    )
    (property "Datasheet" "" (at 210.82 48.26 0)
      (effects (font (size 1.27 1.27)) hide)
    )
    (property "SUPPLIER" "DIODES INC." (at 210.82 48.26 0)
      (effects (font (size 1.27 1.27)) (justify bottom) hide)
    )
    (property "PACKAGE" "SOT-23-3" (at 210.82 48.26 0)
      (effects (font (size 1.27 1.27)) (justify bottom) hide)
    )
    (property "OC_NEWARK" "23T5606" (at 210.82 48.26 0)
      (effects (font (size 1.27 1.27)) (justify bottom) hide)
    )
    (property "OC_FARNELL" "1858672" (at 210.82 48.26 0)
      (effects (font (size 1.27 1.27)) (justify bottom) hide)
    )
    (property "MPN" "DMP2160UW-7" (at 210.82 48.26 0)
      (effects (font (size 1.27 1.27)) (justify bottom) hide)
    )
    (property "JLC Part Name" "C99272" (at 210.82 48.26 0)
      (effects (font (size 1.27 1.27)) hide)
    )
    (property "Price" "0.0667 " (at 210.82 48.26 0)
      (effects (font (size 1.27 1.27)) hide)
    )
    (pin "1" (uuid d12af1ac-44a9-4b64-9f52-2d0e98712cc0))
    (pin "2" (uuid 2b5e8e89-9f2b-4c09-b504-e7f36ad89d5f))
    (pin "3" (uuid 51ddda1a-ebba-4834-87c3-e0df3d77d754))
    (instances
      (project "Team1_project"
        (path "/2e9fab27-2079-4468-88ae-c6d7a5f085c6/00000000-0000-0000-0000-0000640241ba"
          (reference "U12") (unit 1)
        )
      )
    )
  )

  (symbol (lib_id "power:GND") (at 74.93 85.725 0) (unit 1)
    (in_bom yes) (on_board yes) (dnp no) (fields_autoplaced)
    (uuid d74ce258-4e2f-425f-be7e-e15085f31505)
    (property "Reference" "#PWR?" (at 74.93 92.075 0)
      (effects (font (size 1.27 1.27)) hide)
    )
    (property "Value" "GND" (at 74.93 90.805 0)
      (effects (font (size 1.27 1.27)))
    )
    (property "Footprint" "" (at 74.93 85.725 0)
      (effects (font (size 1.27 1.27)) hide)
    )
    (property "Datasheet" "" (at 74.93 85.725 0)
      (effects (font (size 1.27 1.27)) hide)
    )
    (pin "1" (uuid 9ec383aa-df2f-4b2b-b4ac-5ce3135d4c40))
    (instances
      (project "Personal_Drafts"
        (path "/209120cb-15d4-4622-b960-6b644f5d28eb/a98e5c82-e6f2-44c4-87c9-59a0d951ee77"
          (reference "#PWR?") (unit 1)
        )
      )
      (project "Team1_project"
        (path "/2e9fab27-2079-4468-88ae-c6d7a5f085c6/00000000-0000-0000-0000-0000640241ba"
          (reference "#PWR037") (unit 1)
        )
      )
    )
  )

  (symbol (lib_id "Team1_Symbols:LTR-308ALS-01") (at 68.326 133.35 0) (mirror y) (unit 1)
    (in_bom yes) (on_board yes) (dnp yes)
    (uuid dffbe68b-5443-4b25-bc24-11dfe66c0383)
    (property "Reference" "U9" (at 68.9101 121.92 0)
      (effects (font (size 1.27 1.27)) (justify right))
    )
    (property "Value" "LTR-308ALS-01" (at 57.404 142.748 0)
      (effects (font (size 1.27 1.27)) hide)
    )
    (property "Footprint" "CustomLibs:LTR-308ALS-01" (at 68.326 133.35 0)
      (effects (font (size 1.27 1.27)) hide)
    )
    (property "Datasheet" "" (at 68.326 133.35 0)
      (effects (font (size 1.27 1.27)) hide)
    )
    (property "JLC Part Name" "C492382" (at 68.326 133.35 0)
      (effects (font (size 1.27 1.27)) hide)
    )
    (property "Price" "0.4373 " (at 68.326 133.35 0)
      (effects (font (size 1.27 1.27)) hide)
    )
    (pin "1" (uuid be90c01a-70d6-443b-b9b4-d76661eb9471))
    (pin "2" (uuid 57326409-712a-47f2-9fc6-18d1680b3c69))
    (pin "3" (uuid 82c648ba-d45f-4a16-974a-554249f08855))
    (pin "4" (uuid 69c85402-9389-4c55-b241-685d5ea4d3d2))
    (pin "5" (uuid d6d4928d-799a-45af-b7bb-f74f503d5acc))
    (instances
      (project "Team1_project"
        (path "/2e9fab27-2079-4468-88ae-c6d7a5f085c6/00000000-0000-0000-0000-0000640241ba"
          (reference "U9") (unit 1)
        )
      )
    )
  )

  (symbol (lib_id "power:+3.3V") (at 163.83 120.015 0) (unit 1)
    (in_bom yes) (on_board yes) (dnp no)
    (uuid f90615ec-a1bb-49fb-ad49-9cd8a2f3a46c)
    (property "Reference" "#PWR042" (at 163.83 123.825 0)
      (effects (font (size 1.27 1.27)) hide)
    )
    (property "Value" "+3.3V" (at 163.83 116.205 0)
      (effects (font (size 1.27 1.27)))
    )
    (property "Footprint" "" (at 163.83 120.015 0)
      (effects (font (size 1.27 1.27)) hide)
    )
    (property "Datasheet" "" (at 163.83 120.015 0)
      (effects (font (size 1.27 1.27)) hide)
    )
    (pin "1" (uuid 9a2a5000-161d-450b-8157-e917ffe6a419))
    (instances
      (project "Team1_project"
        (path "/2e9fab27-2079-4468-88ae-c6d7a5f085c6/00000000-0000-0000-0000-0000640241ba"
          (reference "#PWR042") (unit 1)
        )
      )
    )
  )

  (symbol (lib_id "power:GND") (at 57.785 107.315 0) (unit 1)
    (in_bom yes) (on_board yes) (dnp no) (fields_autoplaced)
    (uuid fe9478a5-4b69-44e9-b6c5-4d0588bc4a94)
    (property "Reference" "#PWR035" (at 57.785 113.665 0)
      (effects (font (size 1.27 1.27)) hide)
    )
    (property "Value" "GND" (at 57.785 112.395 0)
      (effects (font (size 1.27 1.27)))
    )
    (property "Footprint" "" (at 57.785 107.315 0)
      (effects (font (size 1.27 1.27)) hide)
    )
    (property "Datasheet" "" (at 57.785 107.315 0)
      (effects (font (size 1.27 1.27)) hide)
    )
    (pin "1" (uuid ef3051cc-aee1-452d-95d7-83153ef37ae8))
    (instances
      (project "Team1_project"
        (path "/2e9fab27-2079-4468-88ae-c6d7a5f085c6/00000000-0000-0000-0000-0000640241ba"
          (reference "#PWR035") (unit 1)
        )
      )
    )
  )
)
