%TF.GenerationSoftware,KiCad,Pcbnew,(7.0.0)*%
%TF.CreationDate,2023-04-14T08:13:45+02:00*%
%TF.ProjectId,Team1_project,5465616d-315f-4707-926f-6a6563742e6b,rev?*%
%TF.SameCoordinates,Original*%
%TF.FileFunction,Soldermask,Top*%
%TF.FilePolarity,Negative*%
%FSLAX46Y46*%
G04 Gerber Fmt 4.6, Leading zero omitted, Abs format (unit mm)*
G04 Created by KiCad (PCBNEW (7.0.0)) date 2023-04-14 08:13:45*
%MOMM*%
%LPD*%
G01*
G04 APERTURE LIST*
G04 Aperture macros list*
%AMRoundRect*
0 Rectangle with rounded corners*
0 $1 Rounding radius*
0 $2 $3 $4 $5 $6 $7 $8 $9 X,Y pos of 4 corners*
0 Add a 4 corners polygon primitive as box body*
4,1,4,$2,$3,$4,$5,$6,$7,$8,$9,$2,$3,0*
0 Add four circle primitives for the rounded corners*
1,1,$1+$1,$2,$3*
1,1,$1+$1,$4,$5*
1,1,$1+$1,$6,$7*
1,1,$1+$1,$8,$9*
0 Add four rect primitives between the rounded corners*
20,1,$1+$1,$2,$3,$4,$5,0*
20,1,$1+$1,$4,$5,$6,$7,0*
20,1,$1+$1,$6,$7,$8,$9,0*
20,1,$1+$1,$8,$9,$2,$3,0*%
%AMFreePoly0*
4,1,9,3.862500,-0.866500,0.737500,-0.866500,0.737500,-0.450000,-0.737500,-0.450000,-0.737500,0.450000,0.737500,0.450000,0.737500,0.866500,3.862500,0.866500,3.862500,-0.866500,3.862500,-0.866500,$1*%
G04 Aperture macros list end*
%ADD10RoundRect,0.250000X0.450000X-0.262500X0.450000X0.262500X-0.450000X0.262500X-0.450000X-0.262500X0*%
%ADD11RoundRect,0.250000X0.325000X0.650000X-0.325000X0.650000X-0.325000X-0.650000X0.325000X-0.650000X0*%
%ADD12R,0.600000X0.470000*%
%ADD13RoundRect,0.250000X-0.325000X-0.650000X0.325000X-0.650000X0.325000X0.650000X-0.325000X0.650000X0*%
%ADD14RoundRect,0.250000X-0.262500X-0.450000X0.262500X-0.450000X0.262500X0.450000X-0.262500X0.450000X0*%
%ADD15RoundRect,0.250000X0.262500X0.450000X-0.262500X0.450000X-0.262500X-0.450000X0.262500X-0.450000X0*%
%ADD16RoundRect,0.250000X-0.450000X0.262500X-0.450000X-0.262500X0.450000X-0.262500X0.450000X0.262500X0*%
%ADD17RoundRect,0.150000X-0.587500X-0.150000X0.587500X-0.150000X0.587500X0.150000X-0.587500X0.150000X0*%
%ADD18R,1.700000X1.700000*%
%ADD19O,1.700000X1.700000*%
%ADD20R,1.400000X1.200000*%
%ADD21R,1.550000X0.600000*%
%ADD22RoundRect,0.224400X0.680600X0.435600X-0.680600X0.435600X-0.680600X-0.435600X0.680600X-0.435600X0*%
%ADD23RoundRect,0.039200X0.240800X-0.600800X0.240800X0.600800X-0.240800X0.600800X-0.240800X-0.600800X0*%
%ADD24C,1.524000*%
%ADD25RoundRect,0.250000X0.650000X-0.325000X0.650000X0.325000X-0.650000X0.325000X-0.650000X-0.325000X0*%
%ADD26R,1.150000X1.450000*%
%ADD27RoundRect,0.735000X-3.150000X-2.940000X3.150000X-2.940000X3.150000X2.940000X-3.150000X2.940000X0*%
%ADD28R,1.400000X0.300000*%
%ADD29R,0.900000X1.300000*%
%ADD30FreePoly0,270.000000*%
%ADD31RoundRect,0.250000X0.350000X0.450000X-0.350000X0.450000X-0.350000X-0.450000X0.350000X-0.450000X0*%
%ADD32RoundRect,0.250000X-0.650000X0.325000X-0.650000X-0.325000X0.650000X-0.325000X0.650000X0.325000X0*%
%ADD33R,1.250000X0.400000*%
%ADD34R,1.350000X0.600000*%
%ADD35O,2.140000X1.070000*%
%ADD36C,1.300000*%
%ADD37RoundRect,0.200000X0.200000X0.275000X-0.200000X0.275000X-0.200000X-0.275000X0.200000X-0.275000X0*%
%ADD38RoundRect,0.150000X-0.512500X-0.150000X0.512500X-0.150000X0.512500X0.150000X-0.512500X0.150000X0*%
%ADD39R,0.470000X0.600000*%
%ADD40RoundRect,0.012000X-0.188000X-0.138000X0.188000X-0.138000X0.188000X0.138000X-0.188000X0.138000X0*%
%ADD41RoundRect,0.250000X-0.450000X0.350000X-0.450000X-0.350000X0.450000X-0.350000X0.450000X0.350000X0*%
%ADD42R,1.450000X1.150000*%
%ADD43RoundRect,0.243750X-0.456250X0.243750X-0.456250X-0.243750X0.456250X-0.243750X0.456250X0.243750X0*%
%ADD44R,0.930000X0.870000*%
%ADD45RoundRect,0.075000X-0.250000X-0.075000X0.250000X-0.075000X0.250000X0.075000X-0.250000X0.075000X0*%
%ADD46RoundRect,0.243750X-0.243750X-0.456250X0.243750X-0.456250X0.243750X0.456250X-0.243750X0.456250X0*%
%ADD47RoundRect,0.200000X0.275000X-0.200000X0.275000X0.200000X-0.275000X0.200000X-0.275000X-0.200000X0*%
%ADD48R,0.870000X0.930000*%
G04 APERTURE END LIST*
D10*
%TO.C,R4*%
X168000000Y-73825000D03*
X168000000Y-72000000D03*
%TD*%
D11*
%TO.C,C8*%
X180975000Y-83000000D03*
X178025000Y-83000000D03*
%TD*%
D12*
%TO.C,U11*%
X228274999Y-105999999D03*
X228274999Y-107299999D03*
X230174999Y-106649999D03*
%TD*%
D13*
%TO.C,C7*%
X164800000Y-96000000D03*
X167750000Y-96000000D03*
%TD*%
D14*
%TO.C,R28*%
X227450000Y-128500000D03*
X229275000Y-128500000D03*
%TD*%
D13*
%TO.C,C12*%
X164625000Y-88000000D03*
X167575000Y-88000000D03*
%TD*%
D15*
%TO.C,R7*%
X159750000Y-83000000D03*
X157925000Y-83000000D03*
%TD*%
D11*
%TO.C,C6*%
X181000000Y-79250000D03*
X178050000Y-79250000D03*
%TD*%
D16*
%TO.C,R18*%
X230000000Y-64587500D03*
X230000000Y-66412500D03*
%TD*%
D17*
%TO.C,Q1*%
X210835000Y-125840000D03*
X210835000Y-127740000D03*
X212710000Y-126790000D03*
%TD*%
D14*
%TO.C,R13*%
X218087500Y-114250000D03*
X219912500Y-114250000D03*
%TD*%
D18*
%TO.C,J17*%
X237999999Y-120249999D03*
D19*
X237999999Y-117709999D03*
%TD*%
D18*
%TO.C,J5*%
X153749999Y-95249999D03*
D19*
X151209999Y-95249999D03*
%TD*%
D20*
%TO.C,Y1*%
X176099999Y-102149999D03*
X173899999Y-102149999D03*
X173899999Y-103849999D03*
X176099999Y-103849999D03*
%TD*%
D14*
%TO.C,R16*%
X211087500Y-118900000D03*
X212912500Y-118900000D03*
%TD*%
D21*
%TO.C,U6*%
X200099999Y-72689999D03*
X200099999Y-73959999D03*
X200099999Y-75229999D03*
X200099999Y-76499999D03*
X205499999Y-76499999D03*
X205499999Y-75229999D03*
X205499999Y-73959999D03*
X205499999Y-72689999D03*
%TD*%
D22*
%TO.C,C18*%
X157100000Y-118000000D03*
X154500000Y-118000000D03*
%TD*%
D15*
%TO.C,R1*%
X165500000Y-78325000D03*
X163675000Y-78325000D03*
%TD*%
D18*
%TO.C,J9*%
X172499999Y-65499999D03*
D19*
X169959999Y-65499999D03*
X167419999Y-65499999D03*
X164879999Y-65499999D03*
X162339999Y-65499999D03*
X159799999Y-65499999D03*
X157259999Y-65499999D03*
%TD*%
D23*
%TO.C,U13*%
X148100000Y-130907500D03*
X150000000Y-130912500D03*
X149050000Y-128432500D03*
%TD*%
D24*
%TO.C,U5*%
X224590000Y-75970000D03*
X227130000Y-75970000D03*
X229670000Y-75970000D03*
X232210000Y-75970000D03*
X234750000Y-75970000D03*
X227130000Y-96290000D03*
X229670000Y-96290000D03*
X232210000Y-96290000D03*
X234750000Y-96290000D03*
%TD*%
D18*
%TO.C,J16*%
X146249999Y-107249999D03*
%TD*%
D25*
%TO.C,C5*%
X169800000Y-84275000D03*
X169800000Y-81325000D03*
%TD*%
D18*
%TO.C,J4*%
X219734999Y-95014999D03*
D19*
X217194999Y-95014999D03*
%TD*%
D26*
%TO.C,C19*%
X158199999Y-109799999D03*
X156399999Y-109799999D03*
%TD*%
D16*
%TO.C,R27*%
X225250000Y-100587500D03*
X225250000Y-102412500D03*
%TD*%
D27*
%TO.C,BT1*%
X229725000Y-52000000D03*
X150275000Y-52000000D03*
%TD*%
D16*
%TO.C,R15*%
X207250000Y-112837500D03*
X207250000Y-114662500D03*
%TD*%
%TO.C,R14*%
X207500000Y-107675000D03*
X207500000Y-109500000D03*
%TD*%
D18*
%TO.C,J1*%
X204909999Y-128534999D03*
D19*
X204909999Y-131074999D03*
%TD*%
D16*
%TO.C,R19*%
X150500000Y-64587500D03*
X150500000Y-66412500D03*
%TD*%
D18*
%TO.C,J8*%
X204899999Y-122909999D03*
D19*
X204899999Y-120369999D03*
%TD*%
D10*
%TO.C,R6*%
X153750000Y-78825000D03*
X153750000Y-77000000D03*
%TD*%
D28*
%TO.C,U7*%
X157949999Y-114699999D03*
X157949999Y-114199999D03*
X157949999Y-113699999D03*
X157949999Y-113199999D03*
X157949999Y-112699999D03*
X153549999Y-112699999D03*
X153549999Y-113199999D03*
X153549999Y-113699999D03*
X153549999Y-114199999D03*
X153549999Y-114699999D03*
%TD*%
D10*
%TO.C,R8*%
X215000000Y-111162500D03*
X215000000Y-109337500D03*
%TD*%
D15*
%TO.C,R29*%
X227075000Y-116750000D03*
X225250000Y-116750000D03*
%TD*%
D18*
%TO.C,J13*%
X177459999Y-109199999D03*
D19*
X179999999Y-109199999D03*
%TD*%
D13*
%TO.C,C21*%
X226800000Y-133500000D03*
X229750000Y-133500000D03*
%TD*%
D18*
%TO.C,J3*%
X217169999Y-99529999D03*
D19*
X219709999Y-99529999D03*
%TD*%
D26*
%TO.C,C20*%
X158399999Y-106399999D03*
X156599999Y-106399999D03*
%TD*%
D12*
%TO.C,U10*%
X225362499Y-121349999D03*
X225362499Y-122649999D03*
X227262499Y-121999999D03*
%TD*%
D24*
%TO.C,U4*%
X183500000Y-79320000D03*
X183500000Y-81860000D03*
X183500000Y-84400000D03*
X183500000Y-86940000D03*
X183500000Y-89480000D03*
X183500000Y-92020000D03*
X183500000Y-94560000D03*
X183500000Y-97100000D03*
X183500000Y-99640000D03*
X183500000Y-102180000D03*
X183500000Y-104720000D03*
X183500000Y-107260000D03*
X183500000Y-109800000D03*
X183500000Y-112340000D03*
X183500000Y-114880000D03*
X183500000Y-117420000D03*
X183500000Y-119960000D03*
X183500000Y-122500000D03*
X183500000Y-125040000D03*
X183500000Y-127580000D03*
X183500000Y-130120000D03*
X183500000Y-132660000D03*
X183500000Y-135200000D03*
X183500000Y-137740000D03*
X200010000Y-137740000D03*
X200010000Y-135200000D03*
X200010000Y-132660000D03*
X200010000Y-130120000D03*
X200010000Y-127580000D03*
X200010000Y-125040000D03*
X200010000Y-122500000D03*
X200010000Y-119960000D03*
X200010000Y-117420000D03*
X200010000Y-114880000D03*
X200010000Y-112340000D03*
X200010000Y-109800000D03*
X200010000Y-107260000D03*
X200010000Y-104720000D03*
X200010000Y-102180000D03*
X200010000Y-99640000D03*
X200010000Y-97100000D03*
X200010000Y-94560000D03*
X200010000Y-92020000D03*
X200010000Y-89480000D03*
X200010000Y-86940000D03*
X200010000Y-84400000D03*
X200010000Y-81860000D03*
X200010000Y-79320000D03*
%TD*%
D14*
%TO.C,R3*%
X212385000Y-95015000D03*
X214210000Y-95015000D03*
%TD*%
D18*
%TO.C,J18*%
X160749999Y-137999999D03*
D19*
X163289999Y-137999999D03*
%TD*%
D10*
%TO.C,R32*%
X145000000Y-130825000D03*
X145000000Y-129000000D03*
%TD*%
D16*
%TO.C,R11*%
X216187500Y-125790000D03*
X216187500Y-127615000D03*
%TD*%
D14*
%TO.C,R12*%
X215675000Y-119000000D03*
X217500000Y-119000000D03*
%TD*%
D10*
%TO.C,R9*%
X158000000Y-73825000D03*
X158000000Y-72000000D03*
%TD*%
D18*
%TO.C,J15*%
X141999999Y-122424999D03*
D19*
X141999999Y-119884999D03*
X141999999Y-117344999D03*
X141999999Y-114804999D03*
X141999999Y-112264999D03*
X141999999Y-109724999D03*
X141999999Y-107184999D03*
X141999999Y-104644999D03*
X141999999Y-102104999D03*
X141999999Y-99564999D03*
%TD*%
D29*
%TO.C,U2*%
X167699999Y-99449999D03*
D30*
X166200000Y-99537500D03*
D29*
X164699999Y-99449999D03*
%TD*%
D10*
%TO.C,R25*%
X162500000Y-129325000D03*
X162500000Y-127500000D03*
%TD*%
D31*
%TO.C,R24*%
X167750000Y-125162500D03*
X165750000Y-125162500D03*
%TD*%
D18*
%TO.C,J7*%
X214039999Y-106279999D03*
D19*
X211499999Y-106279999D03*
%TD*%
D14*
%TO.C,R2*%
X218635000Y-91515000D03*
X220460000Y-91515000D03*
%TD*%
D13*
%TO.C,C22*%
X231535000Y-117250000D03*
X234485000Y-117250000D03*
%TD*%
D18*
%TO.C,J2*%
X172999999Y-81499999D03*
D19*
X172999999Y-84039999D03*
%TD*%
D32*
%TO.C,C1*%
X154000000Y-85525000D03*
X154000000Y-88475000D03*
%TD*%
D33*
%TO.C,J12*%
X145372999Y-87389999D03*
X145372999Y-88039999D03*
X145372999Y-88689999D03*
X145372999Y-89339999D03*
X145372999Y-89989999D03*
D34*
X142722999Y-89489999D03*
X142722999Y-87889999D03*
D35*
X142747999Y-92289999D03*
D36*
X145398000Y-91115000D03*
X145398000Y-86265000D03*
D35*
X142747999Y-85089999D03*
%TD*%
D37*
%TO.C,R26*%
X152075000Y-117750000D03*
X150425000Y-117750000D03*
%TD*%
D38*
%TO.C,U1*%
X210862500Y-113050000D03*
X210862500Y-114000000D03*
X210862500Y-114950000D03*
X213137500Y-114950000D03*
X213137500Y-114000000D03*
X213137500Y-113050000D03*
%TD*%
D39*
%TO.C,U12*%
X149649999Y-134012499D03*
X148349999Y-134012499D03*
X148999999Y-135912499D03*
%TD*%
D11*
%TO.C,C11*%
X181000000Y-75500000D03*
X178050000Y-75500000D03*
%TD*%
D15*
%TO.C,R5*%
X219912500Y-104780000D03*
X218087500Y-104780000D03*
%TD*%
D40*
%TO.C,U9*%
X233426000Y-104394000D03*
X233426000Y-105044000D03*
X233426000Y-105694000D03*
X234976000Y-105694000D03*
X234976000Y-105044000D03*
X234976000Y-104394000D03*
%TD*%
D25*
%TO.C,C4*%
X185250000Y-76500000D03*
X185250000Y-73550000D03*
%TD*%
D14*
%TO.C,R10*%
X210687500Y-131490000D03*
X212512500Y-131490000D03*
%TD*%
D16*
%TO.C,R21*%
X204500000Y-80925000D03*
X204500000Y-82750000D03*
%TD*%
D41*
%TO.C,R23*%
X168825000Y-127412500D03*
X168825000Y-129412500D03*
%TD*%
D42*
%TO.C,C16*%
X179499999Y-94699999D03*
X179499999Y-96499999D03*
%TD*%
D33*
%TO.C,J11*%
X234804999Y-88089999D03*
X234804999Y-87439999D03*
X234804999Y-86789999D03*
X234804999Y-86139999D03*
X234804999Y-85489999D03*
D34*
X237454999Y-85989999D03*
X237454999Y-87589999D03*
D35*
X237429999Y-83189999D03*
D36*
X234780000Y-84365000D03*
X234780000Y-89215000D03*
D35*
X237429999Y-90389999D03*
%TD*%
D43*
%TO.C,D2*%
X150500000Y-112562500D03*
X150500000Y-114437500D03*
%TD*%
D44*
%TO.C,C15*%
X178499999Y-102249999D03*
X178499999Y-103809999D03*
%TD*%
D14*
%TO.C,R17*%
X178425000Y-70750000D03*
X180250000Y-70750000D03*
%TD*%
D18*
%TO.C,J14*%
X205999999Y-92724999D03*
D19*
X205999999Y-95264999D03*
%TD*%
D10*
%TO.C,R20*%
X204500000Y-86500000D03*
X204500000Y-84675000D03*
%TD*%
D45*
%TO.C,U8*%
X232930000Y-121700000D03*
X232930000Y-122350000D03*
X232930000Y-123000000D03*
X234730000Y-123000000D03*
X234730000Y-122350000D03*
X234730000Y-121700000D03*
%TD*%
D11*
%TO.C,C2*%
X160950000Y-88475000D03*
X158000000Y-88475000D03*
%TD*%
D18*
%TO.C,J10*%
X145874999Y-72774999D03*
D19*
X145874999Y-70234999D03*
%TD*%
D18*
%TO.C,J20*%
X237999999Y-100974999D03*
D19*
X237999999Y-103514999D03*
%TD*%
D25*
%TO.C,C13*%
X190000000Y-76450000D03*
X190000000Y-73500000D03*
%TD*%
D46*
%TO.C,D1*%
X157562500Y-78325000D03*
X159437500Y-78325000D03*
%TD*%
D18*
%TO.C,J6*%
X205999999Y-102274999D03*
D19*
X205999999Y-99734999D03*
%TD*%
D38*
%TO.C,U3*%
X210862500Y-99330000D03*
X210862500Y-100280000D03*
X210862500Y-101230000D03*
X213137500Y-101230000D03*
X213137500Y-100280000D03*
X213137500Y-99330000D03*
%TD*%
D25*
%TO.C,C14*%
X195500000Y-76475000D03*
X195500000Y-73525000D03*
%TD*%
D47*
%TO.C,R22*%
X204500000Y-89825000D03*
X204500000Y-88175000D03*
%TD*%
D11*
%TO.C,C9*%
X181000000Y-87000000D03*
X178050000Y-87000000D03*
%TD*%
D16*
%TO.C,R30*%
X225275000Y-105587500D03*
X225275000Y-107412500D03*
%TD*%
D13*
%TO.C,C10*%
X164600000Y-92000000D03*
X167550000Y-92000000D03*
%TD*%
%TO.C,C3*%
X216985000Y-110765000D03*
X219935000Y-110765000D03*
%TD*%
D48*
%TO.C,C17*%
X174249999Y-105999999D03*
X175809999Y-105999999D03*
%TD*%
D16*
%TO.C,R31*%
X225275000Y-111087500D03*
X225275000Y-112912500D03*
%TD*%
D38*
%TO.C,Ue1*%
X161862500Y-71875000D03*
X161862500Y-72825000D03*
X161862500Y-73775000D03*
X164137500Y-73775000D03*
X164137500Y-71875000D03*
%TD*%
D18*
%TO.C,J19*%
X237999999Y-108709999D03*
D19*
X237999999Y-111249999D03*
%TD*%
D13*
%TO.C,C23*%
X231810000Y-112000000D03*
X234760000Y-112000000D03*
%TD*%
M02*
