(footprint "SOT103P240X110-3N" (version 20221018) (generator pcbnew)
  (layer "F.Cu")
  (property "JLC Part Name" "C99272")
  (property "MPN" "DMP2160UW-7")
  (property "OC_FARNELL" "1858672")
  (property "OC_NEWARK" "23T5606")
  (property "PACKAGE" "SOT-23-3")
  (property "Price" "0.07")
  (property "SUPPLIER" "DIODES INC.")
  (property "Sheetfile" "Sensors.kicad_sch")
  (property "Sheetname" "Sensors")
  (attr smd)
  (fp_text reference "U11" (at 1.754085 -3.584445 -180) (layer "F.SilkS")
      (effects (font (size 1.641394 1.641394) (thickness 0.15)))
    (tstamp fab568f1-2448-4d13-b0bb-d6cb75bf7418)
  )
  (fp_text value "DMP2160UW-7" (at 14.25063 3.4039 -180) (layer "F.Fab")
      (effects (font (size 1.640142 1.640142) (thickness 0.15)))
    (tstamp 7503a2b5-a33d-4411-82ee-65df0505fc72)
  )
  (fp_rect (start -1.25 -0.885) (end -0.65 -0.415)
    (stroke (width 0.005) (type default)) (fill none) (layer "F.Paste") (tstamp 3ebc4c6f-6e4c-4fee-98b2-4007658ca912))
  (fp_rect (start -1.25 0.415) (end -0.65 0.885)
    (stroke (width 0.005) (type default)) (fill none) (layer "F.Paste") (tstamp 3c0182d5-0ca5-4607-9e72-6265597f1376))
  (fp_rect (start 0.65 -0.235) (end 1.25 0.235)
    (stroke (width 0.005) (type default)) (fill none) (layer "F.Paste") (tstamp f4b5cda9-e8a2-4df6-b19f-4a63e9d60814))
  (fp_line (start 0 -1.075) (end 0.65 -1.075)
    (stroke (width 0.1) (type default)) (layer "F.SilkS") (tstamp bcec4a41-7401-4f1d-b74b-66ae776163b3))
  (fp_line (start 0 1.075) (end 0.65 1.075)
    (stroke (width 0.1) (type default)) (layer "F.SilkS") (tstamp 763e506b-1eb3-4153-bf00-ef31dfe5cfd8))
  (fp_line (start 0.65 -1.075) (end 0.65 -0.2)
    (stroke (width 0.1) (type default)) (layer "F.SilkS") (tstamp f6508cb5-eef4-4b53-a256-491a6914d5d9))
  (fp_line (start 0.65 1.075) (end 0.65 0.2)
    (stroke (width 0.1) (type default)) (layer "F.SilkS") (tstamp 7be34939-1c2e-45db-af09-4ed6e2f5e65f))
  (fp_arc (start 0.25 -1.075) (mid 0.176777 -0.898223) (end 0 -0.825)
    (stroke (width 0.1) (type default)) (layer "F.SilkS") (tstamp 3ecf2bca-e4fd-4643-842e-8c21046a68b8))
  (fp_line (start -1.05 -0.8) (end -0.65 -0.8)
    (stroke (width 0.1) (type default)) (layer "F.Fab") (tstamp bfe1df22-17c2-4a85-9067-9fbbd46591e5))
  (fp_line (start -1.05 -0.5) (end -1.05 -0.8)
    (stroke (width 0.1) (type default)) (layer "F.Fab") (tstamp d826de51-82a3-448f-9401-cae068fdc73b))
  (fp_line (start -1.05 0.5) (end -0.65 0.5)
    (stroke (width 0.1) (type default)) (layer "F.Fab") (tstamp 2dbdf8bb-ea1e-4049-8fe3-2e7c03c40c9a))
  (fp_line (start -1.05 0.8) (end -1.05 0.5)
    (stroke (width 0.1) (type default)) (layer "F.Fab") (tstamp 314703d4-6821-4edb-8a50-b3d2e2338a63))
  (fp_line (start -0.65 -1.075) (end 0 -1.075)
    (stroke (width 0.1) (type default)) (layer "F.Fab") (tstamp 1930d73b-1bc3-42cc-b1af-19a1599e1046))
  (fp_line (start -0.65 -0.8) (end -0.65 -1.075)
    (stroke (width 0.1) (type default)) (layer "F.Fab") (tstamp 4a0930aa-029c-46a3-a845-2cb175b2aec4))
  (fp_line (start -0.65 -0.5) (end -1.05 -0.5)
    (stroke (width 0.1) (type default)) (layer "F.Fab") (tstamp 4479e547-9423-49b8-b99b-173fd08d7be5))
  (fp_line (start -0.65 -0.5) (end -0.65 -0.8)
    (stroke (width 0.1) (type default)) (layer "F.Fab") (tstamp ffdd6c77-dbb0-41d6-930c-421b58636c0e))
  (fp_line (start -0.65 0.5) (end -0.65 -0.5)
    (stroke (width 0.1) (type default)) (layer "F.Fab") (tstamp 6e21b012-a046-4b59-b0f9-32360a259ffd))
  (fp_line (start -0.65 0.5) (end -0.65 0.8)
    (stroke (width 0.1) (type default)) (layer "F.Fab") (tstamp 26029f7b-49c6-471c-9dfd-8e2e15fb28a6))
  (fp_line (start -0.65 0.8) (end -1.05 0.8)
    (stroke (width 0.1) (type default)) (layer "F.Fab") (tstamp 79fd4fb9-c7d2-4e0d-9e74-33a7370c4b0e))
  (fp_line (start -0.65 1.075) (end -0.65 0.8)
    (stroke (width 0.1) (type default)) (layer "F.Fab") (tstamp 3ea61ede-6a15-476b-9d07-a9bc1d384e1a))
  (fp_line (start -0.65 1.075) (end 0 1.075)
    (stroke (width 0.1) (type default)) (layer "F.Fab") (tstamp dc2f2ad6-cc91-4a06-990a-2a6acafa14b5))
  (fp_line (start 0 -1.075) (end 0.65 -1.075)
    (stroke (width 0.1) (type default)) (layer "F.Fab") (tstamp 3f989ebc-c93b-48b8-904a-86601b445065))
  (fp_line (start 0 1.075) (end 0.65 1.075)
    (stroke (width 0.1) (type default)) (layer "F.Fab") (tstamp a2a11968-fda7-4e1d-a1cb-b62148640f13))
  (fp_line (start 0.65 -1.07) (end 0.65 -0.15)
    (stroke (width 0.1) (type default)) (layer "F.Fab") (tstamp 7bcfe421-887d-4b31-a915-caf72babb104))
  (fp_line (start 0.65 -0.15) (end 0.65 0.15)
    (stroke (width 0.1) (type default)) (layer "F.Fab") (tstamp e83a57f9-d9e8-4e0f-a67e-d6cda26744a0))
  (fp_line (start 0.65 0.15) (end 1.05 0.15)
    (stroke (width 0.1) (type default)) (layer "F.Fab") (tstamp 5d5345b2-859a-4324-87dc-b1d3e15f667f))
  (fp_line (start 0.65 1.075) (end 0.65 0.15)
    (stroke (width 0.1) (type default)) (layer "F.Fab") (tstamp 073dd328-ca50-4c94-8e62-03f40a0039de))
  (fp_line (start 1.05 -0.15) (end 0.65 -0.15)
    (stroke (width 0.1) (type default)) (layer "F.Fab") (tstamp 10f0521a-1406-4c44-a5fa-614de6759f19))
  (fp_line (start 1.05 0.15) (end 1.05 -0.15)
    (stroke (width 0.1) (type default)) (layer "F.Fab") (tstamp 434eeeac-46f5-4375-90b7-b368445fa227))
  (fp_arc (start 0.249999 -1.07) (mid -0.0025 -0.824964) (end -0.250049 -1.075)
    (stroke (width 0.1) (type default)) (layer "F.Fab") (tstamp a51163a9-6533-42b7-92cb-078bda283bdd))
  (pad "1" smd rect (at -0.95 -0.65) (size 0.6 0.47) (layers "F.Cu" "F.Paste" "F.Mask") (tstamp 35b823c3-18d4-48bb-b3b1-cc591ba589c7))
  (pad "2" smd rect (at -0.95 0.65) (size 0.6 0.47) (layers "F.Cu" "F.Paste" "F.Mask") (tstamp 688a48ce-2d7a-4a6f-9025-017b35697673))
  (pad "3" smd rect (at 0.95 0) (size 0.6 0.47) (layers "F.Cu" "F.Paste" "F.Mask") (tstamp 5e79fe10-076b-46d7-b834-ccf5c9400a1a))
)
